<?xml version="1.0" standalone="no"?>
<!DOCTYPE svg PUBLIC "-//W3C//DTD SVG 20010904//EN"
 "http://www.w3.org/TR/2001/REC-SVG-20010904/DTD/svg10.dtd">
<svg version="1.0" xmlns="http://www.w3.org/2000/svg"
 width="590.209674pt" height="412.701925pt" viewBox="0 0 590.209674 412.701925"
 preserveAspectRatio="xMidYMid meet">
<metadata>
Created by potrace 1.13, written by Peter Selinger 2001-2015
</metadata>
<g transform="translate(-6.230326,411.372535) scale(0.100000,-0.100000)"
fill="#000000" stroke="none">
<path d="M5049 4067 c-118 -39 -184 -87 -261 -188 -130 -170 -155 -398 -64
-602 l24 -55 -29 -13 c-16 -6 -38 -22 -48 -35 -11 -13 -22 -24 -25 -24 -3 0
-6 44 -6 98 0 108 -11 140 -53 160 -24 12 -32 11 -53 -2 -23 -16 -26 -15 -55
6 -30 23 -31 23 -45 4 -8 -11 -14 -35 -14 -52 l0 -33 -30 17 c-29 16 -32 16
-44 -1 -10 -13 -11 -28 -5 -55 12 -52 12 -53 -14 -47 -16 4 -29 0 -41 -14 -26
-28 -17 -107 23 -201 52 -125 94 -168 185 -191 l45 -11 26 -117 c51 -224 175
-686 185 -689 5 -2 10 -10 10 -18 0 -17 39 -19 44 -1 23 87 210 636 215 630
12 -14 278 -831 347 -1065 58 -197 70 -227 88 -230 20 -3 22 -13 33 -163 7
-88 26 -324 43 -525 16 -201 33 -411 36 -467 l7 -103 29 0 29 0 -5 53 c-21
183 -96 1131 -96 1203 l0 52 160 163 161 164 -6 -120 c-3 -66 -12 -248 -20
-405 -8 -157 -19 -400 -25 -540 -5 -140 -13 -326 -16 -413 l-7 -157 25 0 25 0
12 343 c6 188 18 466 26 617 8 151 17 347 20 435 12 295 11 288 39 312 18 15
26 32 26 54 0 17 -22 144 -50 283 -27 138 -63 328 -79 421 -63 362 -71 397
-94 416 -12 10 -26 18 -32 19 -5 0 -93 -29 -194 -65 -101 -36 -190 -65 -197
-65 -9 0 -14 11 -14 30 0 24 5 31 28 35 48 11 145 47 203 75 134 68 216 168
265 327 25 80 26 86 15 197 -24 244 -88 366 -248 471 -180 120 -322 143 -504
82z m315 -42 c126 -44 237 -124 294 -210 63 -95 86 -185 86 -340 l1 -130 -39
-83 c-60 -127 -146 -199 -313 -264 -109 -42 -174 -42 -278 0 -45 17 -103 46
-129 63 l-49 30 29 15 c46 24 75 55 100 109 25 53 30 80 15 89 -5 4 -17 -17
-26 -44 -26 -79 -89 -140 -143 -140 -26 0 -94 75 -126 138 -109 215 -80 469
72 627 85 89 151 126 247 139 28 4 57 11 65 17 28 17 123 9 194 -16z m-881
-647 c3 -13 17 -65 29 -117 33 -133 49 -131 41 4 -6 101 -5 107 13 103 24 -4
33 -51 33 -178 1 -61 5 -100 13 -108 19 -19 46 -14 59 11 17 32 61 77 76 77
21 0 15 -36 -19 -118 -34 -83 -105 -166 -153 -178 -41 -10 -91 4 -136 39 -30
24 -50 53 -79 117 -62 136 -67 261 -5 140 24 -48 45 -65 45 -37 0 7 -9 48 -21
92 -11 43 -19 87 -17 99 l3 21 21 -21 c12 -12 31 -53 43 -93 12 -40 27 -71 34
-71 11 0 10 22 -4 107 -9 59 -15 113 -12 120 8 21 30 15 36 -9z m432 -325 c67
-53 177 -102 275 -125 l50 -11 0 -47 0 -47 -122 -44 c-107 -39 -123 -47 -134
-74 -7 -16 -57 -162 -110 -323 -53 -161 -98 -292 -99 -290 -5 5 -129 478 -161
612 -20 88 -25 121 -16 124 7 2 34 18 60 35 52 35 102 110 128 191 8 28 18 57
20 65 5 15 0 18 109 -66z m827 -353 c21 -118 65 -358 99 -532 33 -175 59 -322
57 -327 -1 -5 -98 -106 -215 -225 l-212 -216 -12 41 c-11 34 -10 42 1 49 10 6
17 39 21 107 6 82 16 126 63 266 31 93 57 178 58 190 1 12 -26 99 -60 192 -34
94 -80 227 -102 296 -40 128 -61 162 -82 141 -13 -13 26 -158 104 -377 28 -77
58 -163 68 -192 l19 -52 -40 -113 c-50 -144 -78 -248 -87 -318 l-7 -55 -34
115 c-18 63 -98 311 -177 551 -79 239 -144 442 -144 450 0 10 59 35 178 77 97
34 233 82 302 107 69 24 134 43 145 42 18 -2 24 -24 57 -217z"/>
<path d="M777 2634 c-164 -36 -306 -111 -430 -225 -90 -83 -153 -166 -201
-270 -55 -115 -70 -187 -69 -319 1 -143 41 -312 100 -421 46 -86 143 -203 221
-265 103 -83 291 -156 442 -170 36 -4 71 -10 78 -13 18 -10 -80 -101 -110
-101 -12 0 -113 19 -225 42 -151 31 -207 38 -215 30 -10 -10 -92 -370 -170
-744 -26 -128 -30 -160 -19 -170 10 -11 15 -9 27 6 8 11 14 28 14 37 0 31 167
819 176 828 2 2 176 -31 386 -72 211 -42 450 -89 533 -105 l150 -28 59 -302
c58 -300 59 -302 83 -302 21 0 24 4 19 24 -15 59 -116 578 -116 595 0 15 41
41 178 112 388 201 470 243 819 423 199 102 369 186 378 186 18 0 336 97 343
105 9 9 -8 35 -23 35 -8 0 -70 -18 -137 -40 -68 -22 -124 -40 -126 -40 -2 0
-1 17 3 39 5 30 3 40 -10 45 -12 4 -20 -4 -31 -29 -7 -19 -14 -40 -15 -47 0
-7 -35 -30 -77 -50 -67 -33 -392 -199 -1142 -585 -113 -58 -208 -109 -212
-112 -5 -4 -105 11 -223 33 l-215 40 0 41 c0 22 3 56 6 77 6 35 8 37 73 53
147 36 349 159 459 280 108 118 191 268 218 393 29 140 11 354 -43 511 -39
115 -79 178 -167 266 -89 88 -181 143 -321 191 -72 25 -96 28 -240 30 -116 3
-179 -1 -228 -12z m385 -49 c40 -9 89 -23 108 -33 33 -16 35 -21 43 -82 24
-195 -42 -650 -139 -963 -36 -114 -138 -370 -177 -442 l-32 -60 -90 1 c-153 2
-355 83 -474 190 -169 154 -258 348 -268 589 -6 137 3 194 48 305 93 232 343
441 593 495 86 19 298 19 388 0z m236 -92 c96 -53 199 -160 244 -253 63 -128
79 -204 85 -387 l6 -163 -150 0 c-83 0 -178 -3 -212 -6 l-61 -7 0 -41 c1 -116
56 -278 118 -347 l45 -51 -29 -24 c-43 -35 -153 -108 -199 -131 -53 -27 -150
-59 -203 -68 l-43 -7 30 60 c44 87 122 287 169 432 51 159 84 309 117 535 23
151 26 203 22 320 -3 77 -8 148 -12 158 -10 24 -2 22 73 -20z m316 -860 c-23
-97 -94 -227 -176 -324 -38 -46 -41 -47 -63 -33 -34 22 -70 81 -95 154 -22 69
-50 210 -43 223 2 4 90 7 194 7 l189 0 -6 -27z m-740 -725 c-12 -93 -10 -90
-57 -83 -23 4 -45 9 -49 11 -7 4 92 112 105 113 4 1 5 -18 1 -41z"/>
</g>
</svg>
