<?xml version="1.0" standalone="no"?>
<!DOCTYPE svg PUBLIC "-//W3C//DTD SVG 20010904//EN"
 "http://www.w3.org/TR/2001/REC-SVG-20010904/DTD/svg10.dtd">
<svg version="1.0" xmlns="http://www.w3.org/2000/svg"
 width="598.815258pt" height="425.699657pt" viewBox="0 0 598.815258 425.699657"
 preserveAspectRatio="xMidYMid meet">
<metadata>
Created by potrace 1.13, written by Peter Selinger 2001-2015
</metadata>
<g transform="translate(-13.624742,427.259657) scale(0.100000,-0.100000)"
fill="#000000" stroke="none">
<path d="M5148 4241 c-114 -25 -177 -60 -264 -147 -78 -79 -144 -193 -163
-282 -50 -238 63 -533 259 -677 62 -46 147 -87 224 -109 l58 -17 -5 -40 c-3
-23 -8 -43 -11 -47 -4 -3 -59 0 -124 7 -189 20 -192 21 -192 45 0 53 -48 60
-103 15 l-37 -30 0 83 c0 46 -5 100 -11 121 -10 39 -49 73 -72 64 -8 -3 -21 3
-30 14 -20 23 -70 25 -91 4 -8 -8 -24 -15 -35 -15 -28 0 -51 -27 -51 -61 0
-24 -6 -32 -30 -41 -54 -18 -62 -68 -34 -206 34 -166 98 -245 218 -271 l30 -7
53 -264 c52 -257 69 -308 93 -284 10 10 40 263 40 333 0 13 2 22 4 20 7 -7 35
-410 44 -628 10 -227 8 -224 104 -214 58 6 59 6 54 -18 -3 -13 -17 -125 -31
-249 -57 -491 -143 -1130 -171 -1263 -6 -27 -4 -28 23 -25 l28 3 27 200 c59
429 79 591 113 895 19 173 40 347 46 387 l11 71 107 6 c58 4 144 9 190 12 l84
6 -6 -98 c-4 -55 -16 -259 -27 -454 -25 -452 -48 -798 -60 -924 -6 -54 -10
-100 -10 -102 0 -2 11 -4 25 -4 19 0 25 6 29 32 7 41 30 414 56 913 24 455 38
629 51 633 5 2 9 11 9 20 0 40 63 238 80 252 18 14 71 131 149 327 30 76 36
84 77 103 78 38 234 241 234 305 0 17 -5 36 -11 42 -9 9 -9 20 0 44 9 25 8 38
-4 62 -8 17 -15 40 -15 52 0 27 -18 45 -46 45 -15 0 -24 7 -26 21 -4 29 -29
43 -61 35 -29 -7 -69 -44 -139 -126 l-46 -55 5 46 c6 53 -15 104 -48 114 -20
7 -79 -11 -79 -24 0 -3 -4 -12 -9 -20 -7 -11 -13 -12 -23 -4 -7 6 -65 16 -128
22 -178 18 -170 15 -170 67 l0 44 48 0 c117 1 226 43 347 136 77 57 115 105
163 200 48 95 65 175 65 294 -1 226 -102 399 -309 533 -141 91 -295 116 -476
78z m287 -51 c140 -36 303 -159 373 -282 39 -68 72 -191 72 -269 0 -126 -46
-266 -121 -368 -43 -58 -174 -154 -246 -181 -32 -12 -99 -25 -152 -29 -99 -9
-122 -4 -236 44 -50 22 -150 93 -191 137 -121 127 -192 350 -167 521 14 103
59 190 142 279 86 92 162 135 269 153 111 19 169 18 257 -5z m-775 -1100 c5
-120 6 -125 28 -128 22 -3 22 -2 22 107 0 64 4 111 10 111 12 0 18 -43 23
-163 3 -74 8 -103 21 -115 11 -12 20 -14 30 -7 8 6 29 21 47 34 29 22 32 23
25 5 -16 -44 -74 -131 -122 -183 l-51 -55 -43 13 c-63 19 -84 35 -114 90 -31
58 -66 187 -66 245 0 54 19 35 28 -29 8 -53 35 -82 52 -55 5 8 8 22 5 30 -12
43 -16 159 -6 176 8 15 11 3 12 -56 2 -105 10 -135 34 -135 19 0 20 6 16 112
-4 117 0 136 27 131 14 -3 18 -22 22 -128z m603 -215 c182 -20 337 -33 345
-30 12 4 14 -2 8 -37 -4 -24 -9 -88 -13 -143 -9 -158 19 -255 89 -305 21 -16
33 -30 27 -32 -6 -2 -35 -87 -63 -188 -29 -102 -70 -247 -92 -322 l-39 -137
-50 -6 c-103 -11 -489 -25 -495 -18 -4 5 -13 115 -19 246 -6 131 -21 342 -32
470 -11 128 -21 280 -23 339 -2 59 -8 113 -14 121 -8 9 -6 21 10 45 11 18 22
32 25 32 3 0 154 -16 336 -35z m671 -22 c-84 -128 -96 -153 -84 -168 21 -26
37 -17 74 43 33 52 91 110 101 100 2 -2 -19 -39 -46 -82 -53 -82 -58 -109 -22
-114 19 -3 20 -6 10 -33 -10 -24 -9 -32 3 -39 8 -6 21 -8 28 -5 23 9 -19 -52
-85 -121 -63 -66 -64 -67 -108 -62 -103 12 -147 91 -147 259 1 147 11 218 35
230 20 11 20 10 14 -69 l-6 -81 30 -21 c37 -27 37 -27 136 98 72 89 104 121
67 65z m-1099 -324 c-14 -134 -27 -244 -28 -246 -2 -1 -20 80 -41 181 l-38
183 41 44 c23 24 51 59 64 76 13 21 23 28 25 19 2 -8 -9 -123 -23 -257z m1205
72 c-21 -30 -39 -43 -24 -18 24 40 37 57 41 53 3 -3 -5 -19 -17 -35z m-272
-279 c10 -7 6 -27 -19 -90 -18 -45 -34 -81 -36 -79 -2 2 6 34 18 72 11 37 18
76 16 86 -6 20 1 23 21 11z"/>
<path d="M815 2295 c-138 -35 -295 -114 -402 -201 -110 -90 -219 -282 -247
-433 -20 -107 -20 -261 0 -359 28 -138 116 -307 214 -414 l69 -75 -37 -35
c-20 -20 -57 -48 -82 -64 -25 -15 -40 -29 -33 -31 18 -6 91 35 137 77 l42 39
30 -20 c108 -74 283 -137 402 -146 l82 -6 0 -68 c0 -61 -2 -68 -22 -75 -12 -3
-112 -5 -222 -3 l-201 4 -3 -29 c-2 -16 -41 -110 -88 -209 -46 -100 -84 -185
-84 -190 0 -4 11 -7 25 -5 22 3 31 17 68 108 24 58 61 144 82 193 l40 87 105
0 c226 0 888 11 947 15 l61 4 16 -87 c8 -48 25 -144 38 -214 21 -121 24 -128
46 -128 18 0 22 4 18 17 -7 24 -76 365 -76 378 0 17 1003 1009 1062 1051 19
14 83 46 143 73 60 27 111 54 113 60 9 26 -32 20 -110 -14 -46 -20 -89 -39
-96 -42 -9 -4 -11 7 -10 42 4 72 -17 68 -40 -7 l-19 -64 -349 -345 c-192 -190
-427 -421 -522 -514 l-173 -169 -344 -4 -344 -4 -5 23 c-3 13 -7 44 -9 69 l-4
45 111 33 c164 48 318 128 406 209 l71 66 74 -37 c41 -21 85 -36 97 -34 18 2
5 12 -52 40 -41 20 -81 41 -88 45 -9 7 0 33 37 109 28 55 65 142 83 194 31 91
33 101 33 240 -1 159 -17 238 -74 365 -97 214 -279 364 -516 425 -108 28 -316
36 -400 15z m372 -65 c198 -48 380 -183 465 -346 113 -217 127 -444 42 -671
-28 -75 -102 -223 -110 -223 -4 0 -43 26 -87 57 -103 74 -318 287 -397 394
-88 119 -160 244 -160 279 0 17 -3 30 -6 30 -14 0 -32 -29 -28 -46 5 -19 -52
-189 -105 -313 -54 -127 -266 -488 -307 -522 -49 -40 -242 268 -278 445 -47
232 8 476 149 655 101 128 324 259 479 281 88 13 248 3 343 -20z m-226 -627
c68 -122 158 -234 308 -383 87 -87 189 -178 229 -205 l74 -50 -64 -60 c-100
-95 -292 -183 -491 -226 -95 -20 -259 19 -404 96 -114 60 -111 53 -60 126 157
226 319 554 362 732 4 15 9 27 10 27 2 0 18 -26 36 -57z"/>
<path d="M971 1150 c-283 -6 -273 -2 -254 -95 17 -77 54 -154 97 -203 79 -88
247 -103 346 -32 77 54 146 211 141 317 -1 20 -6 23 -43 20 -24 -1 -153 -4
-287 -7z m309 -28 c0 -28 -30 -122 -52 -167 -33 -65 -78 -113 -126 -136 -37
-18 -55 -21 -115 -16 -105 9 -151 41 -200 139 -24 49 -40 97 -44 132 l-6 56
179 3 c99 1 221 4 272 5 83 2 92 0 92 -16z"/>
</g>
</svg>
