010.png^^^]
This is a man.^^
This is a hat.^^
This is his hand.^^
The hat is in his hand.^^
^]
^_

020.png^^^]
This is a seat.^^
He will put the hat on the seat.^^
^]
^_

030.png^^^]
He is putting the hat on the seat.^^
^]
^_

040.png^^^]
He put the hat on the seat.^^
^]
^_

050.png^^^]
The hat is on the seat.^^
The hat was in his hand.^^
^]
^_