<?xml version="1.0" standalone="no"?>
<!DOCTYPE svg PUBLIC "-//W3C//DTD SVG 20010904//EN"
 "http://www.w3.org/TR/2001/REC-SVG-20010904/DTD/svg10.dtd">
<svg version="1.0" xmlns="http://www.w3.org/2000/svg"
 width="398.781618pt" height="464.515422pt" viewBox="0 0 398.781618 464.515422"
 preserveAspectRatio="xMidYMid meet">
<metadata>
Created by potrace 1.12, written by Peter Selinger 2001-2015
</metadata>
<g transform="translate(-13.785788,466.075422) scale(0.100000,-0.100000)"
fill="#000000" stroke="none">
<path d="M1050 4636 c-236 -46 -356 -123 -503 -323 -107 -146 -143 -340 -97
-526 26 -104 88 -222 148 -278 61 -59 167 -125 236 -146 30 -9 64 -24 76 -33
l22 -16 -32 -47 c-17 -26 -35 -49 -39 -52 -5 -2 -85 34 -178 80 -193 97 -316
134 -416 127 -49 -3 -58 -7 -61 -25 -28 -146 -62 -778 -52 -962 20 -343 35
-479 77 -706 24 -132 82 -317 105 -333 15 -12 16 -29 4 -230 -15 -245 -9 -759
11 -993 11 -129 14 -143 31 -143 18 0 19 5 11 88 -9 103 -11 1220 -2 1242 6
13 19 14 95 7 49 -5 148 -20 219 -34 72 -14 149 -28 172 -30 41 -5 43 -7 57
-53 8 -27 22 -60 31 -74 10 -14 14 -26 10 -26 -4 0 -3 -6 2 -12 23 -29 206
-460 206 -485 0 -7 3 -13 7 -13 8 0 7 -52 -1 -65 -4 -5 -10 -29 -14 -53 -4
-26 -11 -40 -17 -35 -6 3 -8 1 -5 -4 4 -6 -4 -37 -17 -69 -13 -33 -34 -106
-46 -163 -12 -57 -26 -115 -31 -128 -13 -34 -11 -63 4 -63 15 0 62 112 87 210
10 41 38 134 60 205 23 72 41 135 42 140 0 8 -44 118 -121 300 -27 62 -101
228 -132 294 -32 68 -34 76 -18 79 10 2 34 -4 54 -14 21 -10 40 -13 44 -8 10
11 -3 255 -19 354 -6 41 -10 125 -8 185 3 102 7 118 47 220 24 61 85 220 136
355 88 232 164 414 171 407 2 -1 10 -75 19 -162 32 -336 49 -431 79 -447 11
-7 68 -15 126 -19 110 -7 438 -38 455 -43 6 -1 -12 -13 -40 -25 -27 -12 -61
-33 -75 -45 -14 -13 -41 -31 -60 -41 -19 -9 -56 -31 -82 -49 -56 -37 -54 -20
-38 -306 5 -102 14 -300 20 -440 5 -140 13 -318 16 -395 3 -77 6 -195 8 -263
1 -70 7 -127 13 -133 15 -15 53 -2 47 16 -3 7 0 16 6 20 7 4 8 11 1 18 -5 7
-9 23 -8 37 0 30 -39 831 -53 1077 -5 95 -10 202 -10 239 l0 65 79 -63 c43
-35 134 -107 202 -162 68 -54 135 -110 148 -125 13 -14 20 -20 16 -12 -4 7 32
-18 81 -56 49 -38 103 -78 121 -88 18 -10 30 -22 27 -27 -3 -5 -2 -8 3 -7 15
4 43 -13 37 -22 -3 -5 -2 -9 3 -8 20 3 32 -3 58 -28 16 -16 25 -21 20 -13 -8
13 -6 13 8 1 9 -7 15 -17 12 -21 -3 -5 0 -12 6 -16 8 -4 9 -3 5 4 -4 7 -2 12
3 12 6 0 11 -4 11 -10 0 -5 5 -10 11 -10 23 0 41 -33 44 -78 2 -26 6 -103 9
-172 4 -69 8 -168 11 -220 3 -52 5 -172 6 -265 1 -157 3 -174 24 -215 l23 -45
8 29 c8 32 0 305 -17 556 -6 91 -12 209 -13 262 -2 93 -2 97 22 107 13 6 28 9
33 6 5 -4 9 -2 9 4 0 9 56 27 73 23 4 -1 7 3 7 8 0 6 5 10 11 10 10 0 76 28
194 80 11 5 79 30 150 55 72 25 155 57 185 70 91 40 202 77 265 90 22 4 45 11
50 15 6 4 26 11 45 15 33 6 184 49 215 61 15 6 15 -138 0 -876 -5 -213 -3
-288 10 -380 9 -63 19 -117 22 -120 2 -3 11 4 20 15 12 16 13 37 7 115 -5 52
-7 266 -5 475 2 209 5 479 6 600 2 241 3 257 13 251 4 -2 4 35 0 82 -3 48 -6
404 -6 792 l0 705 -89 33 c-173 65 -241 82 -448 112 -369 55 -396 58 -603 63
-200 4 -204 4 -211 -17 -7 -17 -15 -126 -35 -434 -1 -20 -14 -44 -33 -65 -61
-65 -175 -230 -209 -300 l-17 -36 -31 18 c-98 60 -223 64 -351 10 -61 -25 -82
-39 -102 -70 -22 -34 -25 -46 -22 -111 4 -60 11 -88 45 -158 25 -52 59 -104
88 -134 l48 -49 -118 7 c-66 4 -150 12 -189 17 -38 6 -118 13 -177 16 -61 3
-112 10 -117 17 -14 17 -51 232 -51 296 0 30 -5 82 -10 115 -5 33 -14 103 -19
154 -6 52 -16 100 -23 107 -20 19 -278 168 -410 237 -65 33 -118 64 -118 69 0
7 44 72 86 126 1 2 22 -2 45 -9 99 -26 277 -4 390 50 159 75 273 218 340 425
31 96 31 102 26 235 -8 209 -52 320 -182 452 -78 79 -125 115 -200 149 -42 20
-69 24 -170 26 -68 2 -148 -3 -185 -10z m323 -40 c97 -40 155 -86 259 -205 88
-101 137 -300 117 -475 -9 -83 -47 -196 -96 -284 -148 -269 -461 -368 -786
-249 -90 34 -207 108 -255 162 -76 87 -134 230 -148 370 -11 111 32 262 107
372 154 226 357 328 659 332 68 0 96 -4 143 -23z m1887 -1152 c467 -66 548
-82 654 -125 39 -16 76 -29 83 -29 7 0 22 -5 35 -11 l23 -10 0 -763 c0 -631
-2 -763 -13 -758 -8 3 -11 13 -8 26 4 18 3 19 -7 5 -12 -16 -42 -15 -32 2 4 5
-1 6 -9 3 -8 -3 -30 6 -49 20 -19 14 -39 26 -45 26 -16 0 -81 37 -124 72 -21
16 -38 26 -38 21 0 -4 -4 -3 -8 2 -6 9 -29 23 -184 115 -31 18 -55 37 -52 41
2 4 -1 11 -7 15 -8 4 -9 3 -5 -4 13 -21 -6 -13 -48 21 -80 64 -165 119 -175
112 -19 -11 -12 -21 29 -50 22 -15 37 -32 33 -38 -3 -6 -1 -7 6 -3 7 5 29 -6
54 -26 60 -49 139 -103 160 -111 26 -10 211 -130 215 -139 2 -5 10 -8 17 -8 7
0 15 -3 17 -7 2 -5 28 -21 58 -36 62 -32 170 -90 190 -102 10 -6 9 -10 -4 -17
-9 -5 -21 -6 -28 -2 -6 4 -8 3 -4 -4 7 -12 -24 -24 -161 -57 -123 -29 -294
-84 -388 -124 -38 -16 -73 -27 -77 -25 -4 3 -8 1 -8 -5 0 -6 -15 -14 -32 -20
-72 -22 -280 -102 -404 -155 -72 -31 -140 -56 -151 -56 -24 0 -46 23 -35 35 4
5 1 5 -6 1 -16 -9 -44 12 -35 27 3 6 1 7 -6 3 -7 -5 -35 10 -69 36 -31 23 -79
57 -107 74 -53 32 -309 225 -461 346 -51 40 -117 93 -149 117 l-57 43 29 20
c15 10 43 25 60 33 18 8 45 25 60 39 15 14 41 31 57 37 17 7 45 23 62 36 44
33 67 29 137 -25 34 -27 85 -62 112 -78 28 -15 75 -45 105 -65 126 -84 348
-177 465 -194 27 -4 61 -15 75 -24 41 -28 75 -39 137 -46 166 -19 247 74 208
241 -9 38 -23 79 -31 92 -8 12 -12 28 -8 35 4 7 4 9 -1 5 -4 -4 -23 12 -41 36
-18 24 -48 49 -66 56 -18 8 -35 15 -37 16 -4 4 129 168 190 234 23 25 60 69
83 99 39 52 40 54 21 68 -11 8 -19 19 -17 24 1 6 -1 8 -5 6 -5 -3 -42 20 -84
52 -172 127 -383 261 -549 348 -24 13 -47 29 -51 36 -4 7 -1 95 7 197 7 102
13 204 14 227 l0 43 188 -6 c103 -3 234 -12 292 -20z m-2823 -79 c72 -22 273
-119 543 -262 123 -65 383 -214 398 -228 11 -10 4 -34 -42 -133 -31 -66 -90
-212 -131 -324 -42 -111 -96 -252 -120 -313 -84 -209 -87 -219 -80 -330 3 -55
10 -138 15 -185 5 -47 12 -126 14 -175 l4 -91 -102 12 c-55 7 -155 22 -221 34
-66 12 -165 28 -220 34 -56 7 -110 18 -120 24 -44 23 -130 390 -155 657 -35
367 -32 814 7 1153 l18 152 54 0 c30 0 92 -11 138 -25z m2402 -454 c14 -10 82
-52 151 -93 123 -73 275 -177 378 -258 60 -47 61 -41 -23 -135 -160 -181 -305
-362 -305 -381 0 -24 25 -15 60 21 19 19 42 35 52 35 88 0 199 -203 168 -309
-11 -40 -51 -79 -88 -87 -15 -3 -33 -7 -40 -10 -24 -7 -112 16 -176 46 -36 16
-72 30 -80 30 -72 0 -308 96 -431 175 -27 17 -89 55 -136 84 -97 60 -236 174
-285 232 -40 48 -80 130 -94 193 -13 58 0 121 32 152 35 34 159 74 228 74 79
0 193 -43 185 -70 -8 -24 13 -36 30 -19 8 8 32 48 56 89 23 41 58 98 79 125
20 28 56 76 79 107 l41 57 46 -20 c26 -10 58 -28 73 -38z"/>
<path d="M3820 1876 c0 -3 5 -8 10 -11 6 -3 10 -1 10 4 0 6 -4 11 -10 11 -5 0
-10 -2 -10 -4z"/>
<path d="M2500 2446 c0 -7 57 -69 128 -137 98 -95 145 -134 207 -167 85 -46
125 -60 125 -45 0 15 -30 38 -80 63 -63 32 -139 93 -253 204 -93 91 -127 113
-127 82z"/>
<path d="M1950 500 c-9 -6 -10 -10 -3 -10 6 0 15 5 18 10 8 12 4 12 -15 0z"/>
<path d="M1802 445 c0 -16 2 -24 5 -18 2 7 2 21 0 30 -3 10 -5 5 -5 -12z"/>
</g>
</svg>
