<?xml version="1.0" encoding="UTF-8"?>
<svg xmlns="http://www.w3.org/2000/svg" xmlns:xlink="http://www.w3.org/1999/xlink" width="498pt" height="581pt" viewBox="0 0 498 581" version="1.1">
<defs>
<g>
<symbol overflow="visible" id="glyph0-0">
<path style="stroke:none;" d="M 0.59375 2.125 L 0.59375 -8.46875 L 6.59375 -8.46875 L 6.59375 2.125 Z M 1.265625 1.453125 L 5.9375 1.453125 L 5.9375 -7.78125 L 1.265625 -7.78125 Z M 1.265625 1.453125 "/>
</symbol>
<symbol overflow="visible" id="glyph0-1">
<path style="stroke:none;" d="M 1.171875 -8.75 L 2.9375 -8.75 L 5.171875 -2.796875 L 7.421875 -8.75 L 9.1875 -8.75 L 9.1875 0 L 8.03125 0 L 8.03125 -7.6875 L 5.765625 -1.6875 L 4.578125 -1.6875 L 2.328125 -7.6875 L 2.328125 0 L 1.171875 0 Z M 1.171875 -8.75 "/>
</symbol>
<symbol overflow="visible" id="glyph0-2">
<path style="stroke:none;" d="M 1.125 -6.5625 L 2.203125 -6.5625 L 2.203125 0 L 1.125 0 Z M 1.125 -9.125 L 2.203125 -9.125 L 2.203125 -7.75 L 1.125 -7.75 Z M 1.125 -9.125 "/>
</symbol>
<symbol overflow="visible" id="glyph0-3">
<path style="stroke:none;" d="M 3.671875 -5.8125 C 3.097656 -5.8125 2.640625 -5.582031 2.296875 -5.125 C 1.960938 -4.675781 1.796875 -4.0625 1.796875 -3.28125 C 1.796875 -2.488281 1.960938 -1.867188 2.296875 -1.421875 C 2.628906 -0.972656 3.085938 -0.75 3.671875 -0.75 C 4.242188 -0.75 4.695312 -0.972656 5.03125 -1.421875 C 5.375 -1.878906 5.546875 -2.5 5.546875 -3.28125 C 5.546875 -4.050781 5.375 -4.664062 5.03125 -5.125 C 4.695312 -5.582031 4.242188 -5.8125 3.671875 -5.8125 Z M 3.671875 -6.71875 C 4.609375 -6.71875 5.34375 -6.410156 5.875 -5.796875 C 6.414062 -5.191406 6.6875 -4.351562 6.6875 -3.28125 C 6.6875 -2.207031 6.414062 -1.363281 5.875 -0.75 C 5.34375 -0.132812 4.609375 0.171875 3.671875 0.171875 C 2.734375 0.171875 1.992188 -0.132812 1.453125 -0.75 C 0.921875 -1.363281 0.65625 -2.207031 0.65625 -3.28125 C 0.65625 -4.351562 0.921875 -5.191406 1.453125 -5.796875 C 1.992188 -6.410156 2.734375 -6.71875 3.671875 -6.71875 Z M 3.671875 -6.71875 "/>
</symbol>
<symbol overflow="visible" id="glyph0-4">
<path style="stroke:none;" d=""/>
</symbol>
<symbol overflow="visible" id="glyph0-5">
<path style="stroke:none;" d="M 6.421875 -8.46875 L 6.421875 -7.3125 C 5.972656 -7.519531 5.546875 -7.675781 5.140625 -7.78125 C 4.742188 -7.894531 4.363281 -7.953125 4 -7.953125 C 3.351562 -7.953125 2.851562 -7.828125 2.5 -7.578125 C 2.15625 -7.328125 1.984375 -6.96875 1.984375 -6.5 C 1.984375 -6.113281 2.097656 -5.820312 2.328125 -5.625 C 2.554688 -5.425781 3 -5.269531 3.65625 -5.15625 L 4.359375 -5 C 5.242188 -4.832031 5.894531 -4.535156 6.3125 -4.109375 C 6.738281 -3.691406 6.953125 -3.128906 6.953125 -2.421875 C 6.953125 -1.566406 6.664062 -0.921875 6.09375 -0.484375 C 5.53125 -0.046875 4.695312 0.171875 3.59375 0.171875 C 3.1875 0.171875 2.75 0.125 2.28125 0.03125 C 1.8125 -0.0625 1.328125 -0.203125 0.828125 -0.390625 L 0.828125 -1.609375 C 1.304688 -1.335938 1.773438 -1.132812 2.234375 -1 C 2.703125 -0.863281 3.15625 -0.796875 3.59375 -0.796875 C 4.269531 -0.796875 4.789062 -0.925781 5.15625 -1.1875 C 5.53125 -1.457031 5.71875 -1.835938 5.71875 -2.328125 C 5.71875 -2.753906 5.582031 -3.085938 5.3125 -3.328125 C 5.050781 -3.578125 4.617188 -3.757812 4.015625 -3.875 L 3.296875 -4.015625 C 2.410156 -4.191406 1.769531 -4.46875 1.375 -4.84375 C 0.988281 -5.21875 0.796875 -5.738281 0.796875 -6.40625 C 0.796875 -7.1875 1.066406 -7.796875 1.609375 -8.234375 C 2.148438 -8.679688 2.898438 -8.90625 3.859375 -8.90625 C 4.273438 -8.90625 4.691406 -8.867188 5.109375 -8.796875 C 5.535156 -8.722656 5.972656 -8.613281 6.421875 -8.46875 Z M 6.421875 -8.46875 "/>
</symbol>
<symbol overflow="visible" id="glyph0-6">
<path style="stroke:none;" d="M 4.109375 -3.296875 C 3.242188 -3.296875 2.640625 -3.195312 2.296875 -3 C 1.960938 -2.800781 1.796875 -2.460938 1.796875 -1.984375 C 1.796875 -1.597656 1.921875 -1.289062 2.171875 -1.0625 C 2.429688 -0.84375 2.773438 -0.734375 3.203125 -0.734375 C 3.804688 -0.734375 4.285156 -0.941406 4.640625 -1.359375 C 5.003906 -1.785156 5.1875 -2.351562 5.1875 -3.0625 L 5.1875 -3.296875 Z M 6.265625 -3.75 L 6.265625 0 L 5.1875 0 L 5.1875 -1 C 4.9375 -0.601562 4.628906 -0.304688 4.265625 -0.109375 C 3.898438 0.078125 3.453125 0.171875 2.921875 0.171875 C 2.242188 0.171875 1.707031 -0.015625 1.3125 -0.390625 C 0.914062 -0.773438 0.71875 -1.28125 0.71875 -1.90625 C 0.71875 -2.644531 0.960938 -3.203125 1.453125 -3.578125 C 1.953125 -3.953125 2.691406 -4.140625 3.671875 -4.140625 L 5.1875 -4.140625 L 5.1875 -4.25 C 5.1875 -4.75 5.019531 -5.132812 4.6875 -5.40625 C 4.363281 -5.675781 3.910156 -5.8125 3.328125 -5.8125 C 2.953125 -5.8125 2.582031 -5.765625 2.21875 -5.671875 C 1.863281 -5.578125 1.523438 -5.441406 1.203125 -5.265625 L 1.203125 -6.265625 C 1.597656 -6.421875 1.976562 -6.535156 2.34375 -6.609375 C 2.71875 -6.679688 3.082031 -6.71875 3.4375 -6.71875 C 4.382812 -6.71875 5.09375 -6.472656 5.5625 -5.984375 C 6.03125 -5.492188 6.265625 -4.75 6.265625 -3.75 Z M 6.265625 -3.75 "/>
</symbol>
<symbol overflow="visible" id="glyph0-7">
<path style="stroke:none;" d="M 2.203125 -8.421875 L 2.203125 -6.5625 L 4.421875 -6.5625 L 4.421875 -5.71875 L 2.203125 -5.71875 L 2.203125 -2.15625 C 2.203125 -1.625 2.273438 -1.28125 2.421875 -1.125 C 2.566406 -0.976562 2.863281 -0.90625 3.3125 -0.90625 L 4.421875 -0.90625 L 4.421875 0 L 3.3125 0 C 2.476562 0 1.898438 -0.15625 1.578125 -0.46875 C 1.265625 -0.78125 1.109375 -1.34375 1.109375 -2.15625 L 1.109375 -5.71875 L 0.328125 -5.71875 L 0.328125 -6.5625 L 1.109375 -6.5625 L 1.109375 -8.421875 Z M 2.203125 -8.421875 "/>
</symbol>
</g>
</defs>
<g id="surface29368">
<path style=" stroke:none;fill-rule:nonzero;fill:rgb(0%,0%,0%);fill-opacity:1;" d="M 113.910156 3.546875 C 84.4375 9.292969 69.453125 18.90625 51.09375 43.882812 C 37.730469 62.117188 33.234375 86.34375 38.980469 109.570312 C 42.226562 122.558594 49.96875 137.292969 57.460938 144.289062 C 65.082031 151.65625 78.316406 159.898438 86.933594 162.519531 C 90.679688 163.644531 94.925781 165.515625 96.425781 166.640625 L 99.171875 168.640625 L 95.175781 174.507812 C 93.054688 177.753906 90.804688 180.628906 90.304688 181.003906 C 89.683594 181.25 79.691406 176.757812 68.078125 171.011719 C 43.976562 158.898438 28.617188 154.277344 16.128906 155.152344 C 10.007812 155.527344 8.882812 156.027344 8.507812 158.273438 C 5.011719 176.507812 0.765625 255.429688 2.015625 278.410156 C 4.511719 321.242188 6.386719 338.226562 11.632812 366.574219 C 14.628906 383.058594 21.871094 406.160156 24.742188 408.160156 C 26.617188 409.65625 26.742188 411.78125 25.242188 436.882812 C 23.371094 467.476562 24.121094 531.667969 26.617188 560.886719 C 27.992188 576.996094 28.367188 578.746094 30.488281 578.746094 C 32.738281 578.746094 32.859375 578.121094 31.863281 567.757812 C 30.738281 554.894531 30.488281 415.402344 31.613281 412.65625 C 32.363281 411.03125 33.984375 410.90625 43.476562 411.78125 C 49.59375 412.40625 61.957031 414.277344 70.824219 416.027344 C 79.816406 417.773438 89.433594 419.523438 92.304688 419.773438 C 97.425781 420.398438 97.675781 420.648438 99.421875 426.390625 C 100.421875 429.765625 102.167969 433.886719 103.292969 435.632812 C 104.542969 437.382812 105.042969 438.878906 104.542969 438.878906 C 104.042969 438.878906 104.167969 439.628906 104.792969 440.378906 C 107.664062 444 130.519531 497.824219 130.519531 500.945312 C 130.519531 501.820312 130.890625 502.570312 131.390625 502.570312 C 132.390625 502.570312 132.265625 509.0625 131.265625 510.6875 C 130.765625 511.3125 130.019531 514.308594 129.519531 517.304688 C 129.019531 520.550781 128.144531 522.300781 127.394531 521.675781 C 126.644531 521.300781 126.398438 521.550781 126.769531 522.175781 C 127.269531 522.925781 126.273438 526.796875 124.648438 530.792969 C 123.023438 534.914062 120.402344 544.027344 118.902344 551.148438 C 117.40625 558.265625 115.65625 565.507812 115.03125 567.132812 C 113.410156 571.378906 113.660156 575 115.53125 575 C 117.40625 575 123.273438 561.011719 126.398438 548.773438 C 127.644531 543.65625 131.140625 532.039062 133.890625 523.175781 C 136.761719 514.183594 139.007812 506.316406 139.132812 505.691406 C 139.132812 504.691406 133.640625 490.957031 124.023438 468.226562 C 120.652344 460.484375 111.410156 439.753906 107.539062 431.511719 C 103.542969 423.019531 103.292969 422.019531 105.292969 421.648438 C 106.539062 421.398438 109.539062 422.144531 112.035156 423.394531 C 114.65625 424.644531 117.03125 425.019531 117.53125 424.394531 C 118.777344 423.019531 117.15625 392.550781 115.15625 380.1875 C 114.40625 375.066406 113.910156 364.574219 114.160156 357.082031 C 114.53125 344.34375 115.03125 342.347656 120.027344 329.609375 C 123.023438 321.992188 130.644531 302.136719 137.011719 285.277344 C 148 256.304688 157.492188 233.578125 158.367188 234.449219 C 158.617188 234.574219 159.613281 243.816406 160.738281 254.679688 C 164.734375 296.640625 166.859375 308.503906 170.605469 310.503906 C 171.976562 311.378906 179.097656 312.375 186.339844 312.875 C 200.074219 313.75 241.035156 317.621094 243.160156 318.246094 C 243.910156 318.371094 241.660156 319.867188 238.164062 321.367188 C 234.792969 322.867188 230.546875 325.488281 228.796875 326.988281 C 227.050781 328.609375 223.679688 330.859375 221.304688 332.105469 C 218.933594 333.230469 214.3125 335.980469 211.066406 338.226562 C 204.074219 342.847656 204.320312 340.722656 206.320312 376.441406 C 206.945312 389.175781 208.070312 413.902344 208.816406 431.386719 C 209.441406 448.871094 210.441406 471.097656 210.816406 480.714844 C 211.191406 490.332031 211.566406 505.066406 211.816406 513.558594 C 211.941406 522.300781 212.6875 529.417969 213.4375 530.167969 C 215.3125 532.039062 220.058594 530.417969 219.308594 528.167969 C 218.933594 527.296875 219.308594 526.171875 220.058594 525.671875 C 220.929688 525.171875 221.054688 524.296875 220.183594 523.425781 C 219.558594 522.550781 219.058594 520.550781 219.183594 518.804688 C 219.183594 515.058594 214.3125 415.027344 212.5625 384.308594 C 211.941406 372.445312 211.316406 359.082031 211.316406 354.460938 L 211.316406 346.34375 L 221.179688 354.210938 C 226.550781 358.582031 237.914062 367.574219 246.40625 374.441406 C 254.898438 381.183594 263.265625 388.179688 264.890625 390.050781 C 266.511719 391.800781 267.386719 392.550781 266.886719 391.550781 C 266.386719 390.675781 270.882812 393.796875 277.003906 398.542969 C 283.121094 403.289062 289.863281 408.285156 292.113281 409.53125 C 294.359375 410.78125 295.859375 412.28125 295.484375 412.90625 C 295.109375 413.527344 295.234375 413.902344 295.859375 413.777344 C 297.734375 413.28125 301.230469 415.402344 300.480469 416.527344 C 300.105469 417.152344 300.230469 417.648438 300.855469 417.527344 C 303.351562 417.152344 304.851562 417.898438 308.097656 421.023438 C 310.097656 423.019531 311.21875 423.644531 310.59375 422.644531 C 309.597656 421.023438 309.847656 421.023438 311.59375 422.519531 C 312.71875 423.394531 313.46875 424.644531 313.09375 425.144531 C 312.71875 425.765625 313.09375 426.640625 313.84375 427.140625 C 314.839844 427.640625 314.964844 427.515625 314.464844 426.640625 C 313.96875 425.765625 314.214844 425.144531 314.839844 425.144531 C 315.589844 425.144531 316.214844 425.644531 316.214844 426.390625 C 316.214844 427.015625 316.839844 427.640625 317.589844 427.640625 C 320.460938 427.640625 322.707031 431.761719 323.082031 437.382812 C 323.332031 440.628906 323.832031 450.242188 324.207031 458.859375 C 324.707031 467.476562 325.207031 479.839844 325.582031 486.335938 C 325.957031 492.828125 326.207031 507.8125 326.332031 519.429688 C 326.453125 539.035156 326.703125 541.15625 329.328125 546.277344 L 332.199219 551.898438 L 333.199219 548.273438 C 334.199219 544.277344 333.199219 510.1875 331.074219 478.839844 C 330.328125 467.476562 329.578125 452.742188 329.453125 446.125 C 329.203125 434.507812 329.203125 434.007812 332.199219 432.761719 C 333.824219 432.011719 335.695312 431.636719 336.320312 432.011719 C 336.945312 432.511719 337.445312 432.261719 337.445312 431.511719 C 337.445312 430.386719 344.4375 428.140625 346.5625 428.640625 C 347.058594 428.765625 347.433594 428.265625 347.433594 427.640625 C 347.433594 426.890625 348.058594 426.390625 348.808594 426.390625 C 350.058594 426.390625 358.300781 422.894531 373.035156 416.402344 C 374.410156 415.777344 382.902344 412.65625 391.765625 409.53125 C 400.757812 406.410156 411.125 402.414062 414.871094 400.792969 C 426.234375 395.796875 440.097656 391.175781 447.964844 389.550781 C 450.710938 389.050781 453.582031 388.179688 454.207031 387.679688 C 454.957031 387.179688 457.453125 386.304688 459.828125 385.804688 C 463.949219 385.054688 482.804688 379.6875 486.675781 378.1875 C 488.550781 377.4375 488.550781 395.421875 486.675781 487.582031 C 486.050781 514.183594 486.300781 523.550781 487.925781 535.039062 C 489.050781 542.90625 490.296875 549.648438 490.671875 550.023438 C 490.921875 550.398438 492.046875 549.523438 493.171875 548.148438 C 494.667969 546.152344 494.792969 543.53125 494.042969 533.789062 C 493.421875 527.296875 493.171875 500.570312 493.421875 474.472656 C 493.667969 448.371094 494.042969 414.652344 494.167969 399.542969 C 494.417969 369.445312 494.542969 367.449219 495.792969 368.199219 C 496.292969 368.449219 496.292969 363.828125 495.792969 357.957031 C 495.417969 351.964844 495.042969 307.503906 495.042969 259.050781 L 495.042969 171.011719 L 483.929688 166.890625 C 462.324219 158.773438 453.832031 156.648438 427.984375 152.902344 C 381.902344 146.035156 378.53125 145.660156 352.679688 145.035156 C 327.703125 144.535156 327.203125 144.535156 326.332031 147.160156 C 325.457031 149.28125 324.457031 162.894531 321.960938 201.359375 C 321.835938 203.855469 320.210938 206.851562 317.839844 209.476562 C 310.21875 217.59375 295.984375 238.195312 291.738281 246.9375 L 289.617188 251.433594 L 285.742188 249.1875 C 273.503906 241.695312 257.894531 241.195312 241.910156 247.9375 C 234.292969 251.058594 231.671875 252.808594 229.171875 256.679688 C 226.425781 260.925781 226.050781 262.425781 226.425781 270.542969 C 226.925781 278.035156 227.800781 281.53125 232.046875 290.273438 C 235.167969 296.765625 239.414062 303.261719 243.035156 307.007812 L 249.027344 313.125 L 234.292969 312.25 C 226.050781 311.75 215.5625 310.753906 210.691406 310.128906 C 205.945312 309.378906 195.953125 308.503906 188.585938 308.128906 C 180.96875 307.753906 174.601562 306.882812 173.976562 306.007812 C 172.226562 303.882812 167.605469 277.035156 167.605469 269.042969 C 167.605469 265.296875 166.984375 258.800781 166.359375 254.679688 C 165.734375 250.558594 164.609375 241.820312 163.984375 235.449219 C 163.238281 228.957031 161.988281 222.960938 161.113281 222.085938 C 158.617188 219.714844 126.398438 201.109375 109.914062 192.492188 C 101.796875 188.371094 95.175781 184.5 95.175781 183.875 C 95.175781 183 100.671875 174.882812 105.917969 168.140625 C 106.042969 167.890625 108.664062 168.390625 111.535156 169.261719 C 123.898438 172.511719 146.128906 169.761719 160.238281 163.019531 C 180.09375 153.652344 194.332031 135.796875 202.699219 109.945312 C 206.570312 97.957031 206.570312 97.207031 205.945312 80.597656 C 204.945312 54.5 199.453125 40.636719 183.21875 24.152344 C 173.476562 14.285156 167.605469 9.789062 158.242188 5.546875 C 152.996094 3.046875 149.625 2.546875 137.011719 2.296875 C 128.519531 2.046875 118.527344 2.671875 113.910156 3.546875 Z M 154.246094 8.542969 C 166.359375 13.539062 173.601562 19.28125 186.589844 34.144531 C 197.578125 46.753906 203.699219 71.605469 201.199219 93.460938 C 200.074219 103.824219 195.332031 117.9375 189.210938 128.925781 C 170.730469 162.519531 131.640625 174.882812 91.054688 160.023438 C 79.816406 155.777344 65.207031 146.535156 59.210938 139.792969 C 49.71875 128.925781 42.476562 111.070312 40.730469 93.585938 C 39.355469 79.722656 44.726562 60.867188 54.089844 47.128906 C 73.324219 18.90625 98.671875 6.167969 136.386719 5.671875 C 144.878906 5.671875 148.375 6.167969 154.246094 8.542969 Z M 389.894531 152.40625 C 448.214844 160.648438 458.328125 162.644531 471.566406 168.015625 C 476.4375 170.011719 481.058594 171.636719 481.929688 171.636719 C 482.804688 171.636719 484.679688 172.261719 486.300781 173.007812 L 489.175781 174.257812 L 489.175781 269.542969 C 489.175781 348.339844 488.925781 364.824219 487.550781 364.203125 C 486.550781 363.828125 486.175781 362.578125 486.550781 360.953125 C 487.050781 358.707031 486.925781 358.582031 485.675781 360.332031 C 484.179688 362.328125 480.433594 362.203125 481.679688 360.082031 C 482.179688 359.457031 481.554688 359.332031 480.558594 359.707031 C 479.558594 360.082031 476.8125 358.957031 474.4375 357.207031 C 472.066406 355.460938 469.566406 353.960938 468.820312 353.960938 C 466.820312 353.960938 458.703125 349.339844 453.332031 344.96875 C 450.710938 342.972656 448.589844 341.722656 448.589844 342.347656 C 448.589844 342.847656 448.089844 342.722656 447.589844 342.097656 C 446.839844 340.972656 443.96875 339.226562 424.609375 327.738281 C 420.738281 325.488281 417.742188 323.117188 418.117188 322.617188 C 418.367188 322.117188 417.992188 321.242188 417.242188 320.742188 C 416.242188 320.242188 416.121094 320.367188 416.617188 321.242188 C 418.242188 323.863281 415.871094 322.867188 410.625 318.621094 C 400.632812 310.628906 390.019531 303.757812 388.769531 304.632812 C 386.398438 306.007812 387.273438 307.257812 392.390625 310.878906 C 395.140625 312.75 397.011719 314.875 396.511719 315.625 C 396.136719 316.371094 396.386719 316.496094 397.261719 315.996094 C 398.136719 315.375 400.882812 316.746094 404.003906 319.246094 C 411.5 325.363281 421.363281 332.105469 423.988281 333.105469 C 427.234375 334.355469 450.335938 349.339844 450.835938 350.464844 C 451.085938 351.089844 452.085938 351.464844 452.957031 351.464844 C 453.832031 351.464844 454.832031 351.839844 455.082031 352.339844 C 455.332031 352.960938 458.578125 354.960938 462.324219 356.832031 C 470.066406 360.828125 483.554688 368.074219 486.050781 369.570312 C 487.300781 370.320312 487.175781 370.820312 485.550781 371.695312 C 484.429688 372.320312 482.929688 372.445312 482.054688 371.945312 C 481.308594 371.445312 481.058594 371.570312 481.554688 372.445312 C 482.429688 373.941406 478.558594 375.441406 461.449219 379.5625 C 446.089844 383.183594 424.734375 390.050781 412.996094 395.046875 C 408.25 397.046875 403.882812 398.417969 403.382812 398.167969 C 402.882812 397.792969 402.382812 398.042969 402.382812 398.792969 C 402.382812 399.542969 400.507812 400.542969 398.386719 401.289062 C 389.394531 404.039062 363.417969 414.027344 347.933594 420.648438 C 338.941406 424.519531 330.453125 427.640625 329.078125 427.640625 C 326.082031 427.640625 323.332031 424.769531 324.707031 423.269531 C 325.207031 422.644531 324.832031 422.644531 323.957031 423.144531 C 321.960938 424.269531 318.460938 421.648438 319.585938 419.773438 C 319.960938 419.023438 319.710938 418.898438 318.835938 419.398438 C 317.964844 420.023438 314.464844 418.148438 310.21875 414.902344 C 306.347656 412.03125 300.355469 407.785156 296.859375 405.660156 C 290.238281 401.664062 258.269531 377.5625 239.289062 362.453125 C 232.917969 357.457031 224.675781 350.839844 220.679688 347.84375 L 213.5625 342.472656 L 217.183594 339.976562 C 219.058594 338.726562 222.554688 336.851562 224.675781 335.855469 C 226.925781 334.855469 230.296875 332.730469 232.171875 330.984375 C 234.042969 329.234375 237.289062 327.113281 239.289062 326.363281 C 241.410156 325.488281 244.90625 323.492188 247.03125 321.867188 C 252.527344 317.746094 255.398438 318.246094 264.140625 324.988281 C 268.386719 328.359375 274.753906 332.730469 278.125 334.730469 C 281.621094 336.601562 287.492188 340.347656 291.238281 342.847656 C 306.972656 353.335938 334.695312 364.949219 349.308594 367.074219 C 352.679688 367.574219 356.925781 368.945312 358.675781 370.070312 C 363.792969 373.566406 368.039062 374.941406 375.78125 375.816406 C 396.511719 378.1875 406.628906 366.574219 401.757812 345.71875 C 400.632812 340.972656 398.886719 335.855469 397.886719 334.230469 C 396.886719 332.730469 396.386719 330.734375 396.886719 329.859375 C 397.386719 328.984375 397.386719 328.734375 396.761719 329.234375 C 396.261719 329.734375 393.890625 327.738281 391.644531 324.738281 C 389.394531 321.742188 385.648438 318.621094 383.402344 317.746094 C 381.152344 316.746094 379.03125 315.871094 378.78125 315.746094 C 378.28125 315.25 394.890625 294.769531 402.507812 286.527344 C 405.378906 283.402344 410 277.910156 412.871094 274.164062 C 417.742188 267.667969 417.867188 267.417969 415.496094 265.671875 C 414.121094 264.671875 413.121094 263.296875 413.371094 262.671875 C 413.496094 261.925781 413.246094 261.675781 412.746094 261.925781 C 412.121094 262.300781 407.503906 259.425781 402.257812 255.429688 C 380.777344 239.570312 354.429688 222.835938 333.699219 211.972656 C 330.699219 210.347656 327.828125 208.351562 327.328125 207.476562 C 326.828125 206.601562 327.203125 195.613281 328.203125 182.875 C 329.078125 170.136719 329.828125 157.398438 329.953125 154.527344 L 329.953125 149.15625 L 353.429688 149.90625 C 366.292969 150.28125 382.652344 151.40625 389.894531 152.40625 Z M 37.355469 162.269531 C 46.347656 165.015625 71.449219 177.128906 105.167969 194.988281 C 120.527344 203.105469 152.996094 221.714844 154.871094 223.460938 C 156.242188 224.710938 155.367188 227.707031 149.625 240.070312 C 145.753906 248.3125 138.386719 266.546875 133.265625 280.53125 C 128.019531 294.394531 121.277344 312 118.28125 319.621094 C 107.789062 345.71875 107.414062 346.96875 108.289062 360.828125 C 108.664062 367.699219 109.539062 378.0625 110.164062 383.933594 C 110.785156 389.800781 111.660156 399.667969 111.910156 405.785156 L 112.410156 417.152344 L 99.671875 415.652344 C 92.804688 414.777344 80.316406 412.90625 72.074219 411.40625 C 63.832031 409.90625 51.46875 407.910156 44.601562 407.160156 C 37.605469 406.285156 30.863281 404.914062 29.613281 404.164062 C 24.121094 401.289062 13.378906 355.460938 10.257812 322.117188 C 5.886719 276.285156 6.261719 220.464844 11.132812 178.128906 L 13.378906 159.148438 L 20.125 159.148438 C 23.871094 159.148438 31.613281 160.523438 37.355469 162.269531 Z M 337.320312 218.964844 C 339.066406 220.214844 347.558594 225.460938 356.175781 230.578125 C 371.535156 239.695312 390.519531 252.683594 403.382812 262.796875 C 410.875 268.667969 411 267.917969 400.507812 279.65625 C 380.527344 302.261719 362.421875 324.863281 362.421875 327.238281 C 362.421875 330.234375 365.542969 329.109375 369.914062 324.613281 C 372.285156 322.242188 375.160156 320.242188 376.40625 320.242188 C 387.398438 320.242188 401.257812 345.59375 397.386719 358.832031 C 396.011719 363.828125 391.019531 368.695312 386.398438 369.695312 C 384.523438 370.070312 382.277344 370.570312 381.402344 370.945312 C 378.40625 371.820312 367.414062 368.945312 359.421875 365.199219 C 354.929688 363.203125 350.433594 361.453125 349.433594 361.453125 C 340.441406 361.453125 310.96875 349.464844 295.609375 339.601562 C 292.238281 337.476562 284.496094 332.730469 278.625 329.109375 C 266.511719 321.617188 249.152344 307.382812 243.035156 300.136719 C 238.039062 294.144531 233.042969 283.902344 231.296875 276.035156 C 229.671875 268.792969 231.296875 260.925781 235.292969 257.054688 C 239.664062 252.808594 255.148438 247.8125 263.765625 247.8125 C 273.628906 247.8125 287.867188 253.183594 286.867188 256.554688 C 285.867188 259.550781 288.492188 261.050781 290.613281 258.925781 C 291.613281 257.929688 294.609375 252.933594 297.609375 247.8125 C 300.480469 242.691406 304.851562 235.574219 307.472656 232.203125 C 309.972656 228.707031 314.464844 222.710938 317.339844 218.839844 L 322.457031 211.722656 L 328.203125 214.21875 C 331.449219 215.46875 335.445312 217.71875 337.320312 218.964844 Z M 337.320312 218.964844 "/>
<path style=" stroke:none;fill-rule:nonzero;fill:rgb(0%,0%,0%);fill-opacity:1;" d="M 459.828125 348.21875 C 459.828125 348.589844 460.453125 349.214844 461.074219 349.589844 C 461.824219 349.964844 462.324219 349.714844 462.324219 349.089844 C 462.324219 348.339844 461.824219 347.71875 461.074219 347.71875 C 460.453125 347.71875 459.828125 347.96875 459.828125 348.21875 Z M 459.828125 348.21875 "/>
<path style=" stroke:none;fill-rule:nonzero;fill:rgb(0%,0%,0%);fill-opacity:1;" d="M 294.984375 277.035156 C 294.984375 277.910156 302.101562 285.652344 310.96875 294.144531 C 323.207031 306.007812 329.078125 310.878906 336.820312 315 C 347.433594 320.742188 352.429688 322.492188 352.429688 320.617188 C 352.429688 318.746094 348.683594 315.871094 342.441406 312.75 C 334.574219 308.753906 325.082031 301.136719 310.84375 287.273438 C 299.230469 275.910156 294.984375 273.164062 294.984375 277.035156 Z M 294.984375 277.035156 "/>
<path style=" stroke:none;fill-rule:nonzero;fill:rgb(0%,0%,0%);fill-opacity:1;" d="M 226.300781 520.050781 C 225.175781 520.800781 225.050781 521.300781 225.925781 521.300781 C 226.675781 521.300781 227.800781 520.675781 228.175781 520.050781 C 229.171875 518.554688 228.671875 518.554688 226.300781 520.050781 Z M 226.300781 520.050781 "/>
<path style=" stroke:none;fill-rule:nonzero;fill:rgb(0%,0%,0%);fill-opacity:1;" d="M 207.820312 526.921875 C 207.820312 528.917969 208.070312 529.917969 208.441406 529.167969 C 208.691406 528.292969 208.691406 526.546875 208.441406 525.421875 C 208.070312 524.171875 207.820312 524.796875 207.820312 526.921875 Z M 207.820312 526.921875 "/>
<g style="fill:rgb(74.509804%,74.509804%,74.509804%);fill-opacity:1;">
  <use xlink:href="#glyph0-1" x="0" y="578.171875"/>
  <use xlink:href="#glyph0-2" x="10" y="578.171875"/>
  <use xlink:href="#glyph0-3" x="13" y="578.171875"/>
  <use xlink:href="#glyph0-4" x="20" y="578.171875"/>
  <use xlink:href="#glyph0-5" x="24" y="578.171875"/>
  <use xlink:href="#glyph0-6" x="32" y="578.171875"/>
  <use xlink:href="#glyph0-7" x="39" y="578.171875"/>
  <use xlink:href="#glyph0-3" x="44" y="578.171875"/>
</g>
</g>
</svg>
