<?xml version="1.0" encoding="UTF-8" standalone="no"?>
<!-- Created with Inkscape (http://www.inkscape.org/) -->

<svg
   xmlns:dc="http://purl.org/dc/elements/1.1/"
   xmlns:cc="http://creativecommons.org/ns#"
   xmlns:rdf="http://www.w3.org/1999/02/22-rdf-syntax-ns#"
   xmlns:svg="http://www.w3.org/2000/svg"
   xmlns="http://www.w3.org/2000/svg"
   xmlns:sodipodi="http://sodipodi.sourceforge.net/DTD/sodipodi-0.dtd"
   xmlns:inkscape="http://www.inkscape.org/namespaces/inkscape"
   width="210mm"
   height="297mm"
   viewBox="0 0 210 297"
   version="1.1"
   id="svg8"
   inkscape:version="0.92.5 (2060ec1f9f, 2020-04-08)"
   sodipodi:docname="p54-head-hair-open-eyes.svg">
  <defs
     id="defs2" />
  <sodipodi:namedview
     id="base"
     pagecolor="#ffffff"
     bordercolor="#666666"
     borderopacity="1.0"
     inkscape:pageopacity="0.0"
     inkscape:pageshadow="2"
     inkscape:zoom="0.49497475"
     inkscape:cx="575.26402"
     inkscape:cy="459.30543"
     inkscape:document-units="mm"
     inkscape:current-layer="layer1"
     showgrid="false"
     inkscape:window-width="1920"
     inkscape:window-height="1009"
     inkscape:window-x="3840"
     inkscape:window-y="658"
     inkscape:window-maximized="1" />
  <metadata
     id="metadata5">
    <rdf:RDF>
      <cc:Work
         rdf:about="">
        <dc:format>image/svg+xml</dc:format>
        <dc:type
           rdf:resource="http://purl.org/dc/dcmitype/StillImage" />
        <dc:title></dc:title>
      </cc:Work>
    </rdf:RDF>
  </metadata>
  <g
     inkscape:label="レイヤー 1"
     inkscape:groupmode="layer"
     id="layer1">
    <path
       style="fill:#000000;stroke-width:1.93851948"
       d="m 90.522937,209.05776 c -9.18034,-2.76312 -19.82532,-12.76511 -24.07714,-22.62279 -4.88315,-11.32217 -8.40233,-22.21378 -8.40233,-26.00629 0,-1.53624 -1.9072,-3.65617 -4.23618,-4.70857 -2.79622,-1.26376 -5.49637,-5.73059 -7.94327,-13.14334 -4.1123,-12.45671 -3.23817,-20.63541 2.36168,-22.0998 3.12091,-0.81771 3.66984,-3.48981 4.31934,-21.03856 0.61134,-16.534507 1.45394,-21.054615 4.74288,-25.459326 12.79442,-17.137124 56.320703,-21.89625 76.692523,-8.38588 12.25917,8.130311 15.063,14.192459 16.47002,35.611126 1.03024,15.67687 1.73317,18.51164 4.80151,19.31362 2.93952,0.76932 3.58931,2.82745 3.56605,11.2987 -0.0202,12.40787 -3.08968,19.16845 -10.20544,22.58031 -3.89508,1.8683 -5.27404,3.95831 -5.27404,7.99483 0,3.00647 -1.30736,9.17024 -2.9042,13.69721 -3.42402,9.7049 -18.85768,31.97489 -23.35559,33.70075 -4.30375,1.65078 -20.081983,1.21573 -26.555813,-0.73275 z m 31.038633,-10.72833 c 8.06714,-9.78709 14.50156,-23.53376 16.27939,-34.78115 0.84441,-5.34252 2.48555,-10.03004 3.64663,-10.41716 1.16084,-0.38701 4.38842,-2.6626 7.17187,-5.05682 4.09434,-3.52191 5.08771,-6.13057 5.20078,-13.65721 0.13725,-9.59262 -3.86733,-14.69138 -5.04138,-6.40758 -1.06693,7.52406 -4.38897,4.25793 -6.68954,-6.57646 -1.19969,-5.65062 -3.61157,-13.54579 -5.35917,-17.54487 -2.54974,-5.834029 -2.82862,-9.473346 -1.41045,-18.416077 0.97076,-6.129661 1.6371,-11.291339 1.4768,-11.470565 -0.15995,-0.182657 -5.08544,0.934225 -10.94808,2.474348 -15.80993,4.152876 -47.065333,4.416367 -57.753093,0.487926 -4.27736,-1.57292 -4.38958,-1.357717 -2.94603,5.619079 2.05151,9.914396 1.79968,16.223535 -1.38981,34.877569 -1.75613,10.27148 -3.62186,15.99274 -5.21451,15.99274 -1.36463,0 -2.47979,-2.17968 -2.47979,-4.84637 0,-3.65667 -1.01663,-4.84612 -4.14052,-4.84612 -3.80603,0 -4.04187,0.72095 -2.91742,8.92397 1.28446,9.36546 5.27546,19.284 7.24448,17.99975 2.92196,-1.90494 7.34847,5.14568 8.504,13.5469 0.7002,5.09245 4.12563,14.42623 7.61145,20.74157 8.08097,14.63982 16.92455,20.12852 32.504433,20.17352 10.2558,0.0202 11.38984,-0.43444 16.64996,-6.81583 z m -21.839786,-8.66037 c 0.659736,-1.06698 2.839806,-1.9393 4.846166,-1.9393 2.00564,0 4.18739,0.87207 4.84641,1.9393 0.70021,1.13338 -1.30973,1.93934 -4.84641,1.93934 -3.53583,0 -5.546926,-0.80389 -4.846166,-1.93934 z m -8.691747,-10.93254 c -3.34465,-2.81443 -5.37431,-5.77004 -4.51027,-6.56788 2.37227,-2.19113 33.555113,-3.45505 34.818323,-1.4105 0.60438,0.97969 -1.33945,4.3265 -4.32045,7.43823 -7.2372,7.55378 -17.401816,7.76535 -25.987603,0.54025 z m 21.292053,-1.66687 c 2.09269,-2.52036 1.08989,-2.90778 -7.51674,-2.90778 -5.461296,0 -9.929883,0.79895 -9.929883,1.77672 0,4.4366 13.952473,5.3409 17.446623,1.13106 z M 95.394527,159.75608 c -3.81748,-2.11333 -2.94098,-2.39478 7.443883,-2.39478 10.68614,0 11.35294,0.2311 7.23488,2.51603 -5.50696,3.05461 -8.99172,3.02575 -14.678763,-0.11454 z m 3.150177,-7.88721 c -0.11454,-0.53329 -0.33201,-7.58885 -0.4849,-15.67935 -0.242697,-12.9408 -0.826597,-15.15595 -4.853427,-18.41582 -2.97302,-2.40754 -7.59753,-3.70602 -13.1995,-3.70602 -5.25487,0 -8.15509,-0.75747 -7.42486,-1.93929 0.65968,-1.06688 5.03246,-1.9392 9.71882,-1.9392 6.54478,0 9.66524,1.14479 13.45527,4.93452 4.508853,4.5086 4.934513,6.34834 4.934513,21.32355 0,9.01413 -0.43747,16.38934 -0.968836,16.38934 -0.53329,0 -1.06244,-0.43444 -1.17688,-0.96879 z M 78.559597,126.1835 c -0.79895,-0.79895 -2.25294,-1.45384 -3.23086,-1.45384 -0.97767,0 -1.78817,-0.87202 -1.8019,-1.9393 -0.0101,-1.06698 4.34749,-2.20258 9.69253,-2.52425 5.87914,-0.35472 9.71797,0.22908 9.71797,1.45384 0,1.12198 -1.30973,2.04001 -2.90783,2.04001 -1.60047,0 -2.90778,0.87206 -2.90778,1.93934 0,2.25748 -6.4262,2.62043 -8.56173,0.4849 z m 38.124223,-1.18137 c -8.16972,-4.04616 -4.99406,-6.02668 8.23859,-5.13832 7.57785,0.50856 8.26589,1.39662 3.73569,4.82508 -4.29824,3.2519 -5.95361,3.29514 -11.97428,0.31384 z m -6.78138,-10.12234 c -2.95218,-2.95217 1.21578,-4.68812 11.25748,-4.68812 5.80113,0 10.54739,0.87201 10.54739,1.93929 0,1.06698 -2.83512,1.95074 -6.3002,1.96447 -3.46504,0.0101 -8.06714,0.50155 -10.22648,1.0806 -2.15904,0.57971 -4.53474,0.44655 -5.27819,-0.29719 z"
       id="path218"
       inkscape:connector-curvature="0"
       sodipodi:nodetypes="ccsccccccccccsccccccccccccccccccsssccccccccscsccccccccssccsccccccscscsscccsccsssccccccccsscccc" />
  </g>
</svg>
