<?xml version="1.0" encoding="UTF-8" standalone="no"?>
<svg
   xmlns:dc="http://purl.org/dc/elements/1.1/"
   xmlns:cc="http://creativecommons.org/ns#"
   xmlns:rdf="http://www.w3.org/1999/02/22-rdf-syntax-ns#"
   xmlns:svg="http://www.w3.org/2000/svg"
   xmlns="http://www.w3.org/2000/svg"
   xmlns:sodipodi="http://sodipodi.sourceforge.net/DTD/sodipodi-0.dtd"
   xmlns:inkscape="http://www.inkscape.org/namespaces/inkscape"
   version="1.0"
   width="345.690514pt"
   height="484.880000pt"
   viewBox="0 0 345.690514 484.880000"
   preserveAspectRatio="xMidYMid meet"
   id="svg12"
   sodipodi:docname="They-are-there-(people).svg"
   inkscape:version="0.92.5 (2060ec1f9f, 2020-04-08)">
  <defs
     id="defs16" />
  <sodipodi:namedview
     pagecolor="#ffffff"
     bordercolor="#666666"
     borderopacity="1"
     objecttolerance="10"
     gridtolerance="10"
     guidetolerance="10"
     inkscape:pageopacity="0"
     inkscape:pageshadow="2"
     inkscape:window-width="1600"
     inkscape:window-height="829"
     id="namedview14"
     showgrid="false"
     inkscape:zoom="2.0649711"
     inkscape:cx="136.27017"
     inkscape:cy="197.16868"
     inkscape:window-x="0"
     inkscape:window-y="34"
     inkscape:window-maximized="1"
     inkscape:current-layer="svg12" />
  <metadata
     id="metadata2">
Created by potrace 1.12, written by Peter Selinger 2001-2015
<rdf:RDF>
  <cc:Work
     rdf:about="">
    <dc:format>image/svg+xml</dc:format>
    <dc:type
       rdf:resource="http://purl.org/dc/dcmitype/StillImage" />
    <dc:title></dc:title>
  </cc:Work>
</rdf:RDF>
</metadata>
  <path
     style="fill:#000000;stroke:none;stroke-width:0.1"
     sodipodi:nodetypes="ccccccccccccccscccssscccccccccccccccccccc"
     inkscape:connector-curvature="0"
     id="path4"
     d="m 209.50291,147.87858 c -1.48873,1.72733 -3.25767,5.04258 -3.97256,7.3095 -1.17975,3.54516 -3.39776,5.83654 -14.36216,14.79656 -18.69694,15.37935 -41.89461,34.63729 -55.27677,45.87864 -6.37889,5.38607 -19.12661,15.95847 -28.22288,23.61077 -1.48903,6.29992 7.63834,-7.25233 -1.51895,3.60095 5.4247,-4.33272 9.595,-6.89904 18.49153,-14.5614 15.06561,-12.85875 36.3851,-30.60922 58.31388,-48.52928 5.01014,-4.05321 12.01341,-9.90848 15.67492,-13.02832 5.7545,-4.91687 6.47876,-5.38104 6.37317,-3.2837 -0.0811,3.60047 2.79804,10.05341 7.23063,15.48315 3.01494,3.75635 6.38983,6.3293 13.89908,10.31191 11.00916,6.06123 15.76286,7.10157 34.24952,7.83203 14.29196,0.51928 22.84658,-0.35169 31.8064,-3.30491 4.17527,-1.39182 7.53143,-2.42437 7.52138,-2.22462 -0.005,0.0999 -1.01451,2.25183 -2.2338,4.59349 -1.22431,2.44152 -2.29916,5.89184 -2.49457,7.78441 -0.29528,1.88754 -1.36007,5.13812 -2.47445,7.38492 -1.10936,2.14694 -5.3276,12.34774 -9.3461,22.5586 -4.01851,10.21086 -9.36622,22.9581 -11.93986,28.33549 -2.57364,5.3774 -8.11104,17.91483 -12.21936,27.92091 -4.10832,10.00608 -11.29033,27.36692 -15.96841,38.74609 -4.67306,11.2793 -11.34062,28.36566 -14.71965,37.8077 -3.47891,9.43701 -7.30269,19.7578 -8.5622,22.89845 -3.13836,6.58495 -1.39988,13.93613 3.01198,-2.15128 3.12398,-8.35349 7.19779,-19.66295 9.17218,-25.07052 3.36395,-9.14242 6.68768,-17.48585 28.93855,-71.63554 4.67808,-11.37917 11.1251,-26.07359 14.46824,-32.81402 3.24328,-6.74545 7.91633,-18.02475 10.47055,-25.00515 2.45937,-7.0853 5.98284,-15.41868 7.74674,-18.63406 1.66404,-3.2204 3.48828,-7.63426 3.99839,-9.81136 2.15039,-8.90314 5.43822,-14.54496 11.94213,-20.42537 6.91848,-6.15992 14.70269,-17.58297 18.1464,-26.32086 2.65912,-7.07525 3.22661,-16.35846 1.12493,-18.36667 -1.43776,-1.27391 -1.54266,-1.17906 -0.95417,1.05335 1.61099,5.78833 -0.65435,14.98606 -5.92595,24.23269 -13.06657,22.87192 -28.08555,30.82681 -59.24174,31.16065 -16.02502,0.0944 -24.44387,-1.73127 -36.13203,-8.22718 -10.61972,-5.84137 -15.57179,-10.89676 -18.29076,-18.54315 -1.67133,-4.58984 -1.19868,-13.97795 0.87993,-17.47786 3.0992,-4.1069 7.19257,-13.85753 0.39584,-3.88501 z" />
  <path
     style="fill:#000000;stroke:none;stroke-width:0.1"
     inkscape:connector-curvature="0"
     id="path6"
     d="m 72.055098,254.44 c -8.8,2.2 -18.5,6.8 -24,11.4 -11.8,9.7 -22.8,31.9 -22.8,46.1 0,6.8 3.7,19.4 8.4,28.8 l 4.4,8.8 -3.1,2 c -1.8,1 -5,2.5 -7.2,3.1 l -4,1.2 3.4,0.4 c 2.2,0.2 5,-0.5 8.1,-2.1 l 4.8,-2.5 2.3,2.4 c 3.3,3.5 15.7,11.8 21.4,14.3 2.8,1.2 8.7,2.7 13.3,3.3 l 8.2,1.2 v 4.9 5 l -15.3,-0.5 -15.4,-0.5 -1.2,3.1 c -0.7,1.7 -2.3,6 -3.6,9.6 -1.2,3.6 -3.9,10.1 -6,14.5 -6,12.8 -27.2,64.8 -27.7,67.9 -0.2,1 0.2,2.1 0.8,2.3 0.7,0.2 2.4,-3.1 4.2,-7.9 1.7,-4.6 4.9,-12.8 7.2,-18.3 2.3,-5.5 6.6,-16 9.5,-23.3 3,-7.3 6,-14.3 6.7,-15.5 0.6,-1.2 2.7,-5.8 4.5,-10.2 l 3.4,-8 -0.6,5.4 c -0.3,3 -2.3,14.3 -4.5,25 -2.1,10.8 -5,26.3 -6.5,34.6 -1.4,8.2 -2.8,16 -3.1,17.2 -0.3,1.5 0,2.3 1,2.3 1.3,0 4.6,-14.9 7.6,-34.5 0.6,-3.9 2,-11.3 3.2,-16.5 1.1,-5.2 3.3,-17.6 4.7,-27.5 2,-13.2 3,-17.9 4,-17.7 1.1,0.2 38.6,0.1 58.600002,-0.2 l 7,-0.1 6.6,19 c 3.6,10.4 7.8,21.7 9.3,25 1.5,3.3 4.9,10.9 7.5,17 11.1,25.5 17.1,37 17.1,32.6 0,-0.5 -1.6,-4.4 -3.6,-8.7 -17.3,-37.8 -24.9,-55.9 -30.9,-74.2 l -2.7,-8.3 2.6,-3.7 c 1.4,-2 10.1,-12.8 19.3,-23.8 9.3,-11.1 22,-27.2 28.3,-35.7 9,-12.2 12,-15.6 13.8,-15.7 1.3,0 3.2,-0.5 4.3,-1 2,-1.1 5.9,-7.9 5.9,-10.5 0,-2.4 -1.7,-1.8 -2.4,0.8 -1,4 -4.5,7.6 -8.1,8.3 -3.1,0.5 -4.9,2.5 -15.2,16.3 -6.5,8.6 -18.5,23.7 -26.8,33.6 -8.2,9.9 -16.6,19.9 -18.5,22.3 l -3.5,4.2 -19.5,0.5 -19.500002,0.5 -0.3,-4.9 -0.3,-4.8 5.6,-0.7 c 12.200002,-1.4 27.100002,-8.1 36.500002,-16.2 5.4,-4.7 6.3,-5.2 8.6,-4.4 3.2,1.2 11.7,1.3 11,0.1 -0.3,-0.4 -2.8,-1.1 -5.6,-1.3 -2.8,-0.3 -5.3,-0.7 -5.5,-1 -0.3,-0.2 0.8,-2.9 2.4,-5.9 1.7,-3 4.2,-9.6 5.7,-14.7 6,-21 0.7,-42 -14.8,-58.8 -4.9,-5.4 -13.2,-10.5 -22.4,-14 -9.600002,-3.6 -25.600002,-4.2 -36.600002,-1.4 z m 31.700002,2.2 c 6.6,1.7 18.4,7.8 22.8,11.6 12.9,11.8 20.8,31.2 19.2,47.7 -1.2,11.9 -8.5,31.5 -11.8,31.5 -3.3,0 -23.8,-14.1 -32.4,-22.3 -7.200002,-6.8 -15.700002,-19.4 -19.300002,-28.4 -1.3,-3.6 -3,-3.5 -3,0.1 0,3.1 -8.3,17.1 -16,26.8 -7.4,9.3 -21.2,23.8 -22.7,23.8 -1.3,0 -5.4,-7.6 -8.9,-16.5 -2.4,-6.1 -2.8,-8.4 -2.8,-18.5 -0.1,-10.3 0.2,-12.2 2.5,-17.8 6.7,-15.9 16.8,-27.7 28.4,-33.1 13.5,-6.4 30.9,-8.4 44.000002,-4.9 z m -17.500002,52.1 c 7.3,13.4 26.500002,30.8 42.600002,38.4 1.9,0.9 3.4,2 3.4,2.4 0,1.7 -12,10.4 -18.5,13.5 -13.5,6.2 -16.100002,6.8 -28.500002,6.8 -9.3,0 -12.6,-0.4 -17.4,-2.2 -7.4,-2.7 -15.3,-7.4 -21.4,-12.8 l -4.7,-4.2 9,-9.3 c 13.9,-14.4 26.9,-31.7 29,-38.7 0.3,-1.2 0.9,-2.2 1.3,-2.2 0.4,0 2.7,3.7 5.2,8.3 z" />
  <path
     style="fill:#000000;stroke:none;stroke-width:0.1"
     inkscape:connector-curvature="0"
     id="path8"
     d="m 76.555098,337.24 c -5.9,0.3 -6.3,0.5 -6.3,2.7 0,1.3 1.5,5.2 3.3,8.7 3.9,7.7 7.8,10.1 15,9.5 5.7,-0.5 7.3,-1.8 11.500002,-9.6 3.8,-7.1 4,-8.9 0.9,-10 -2.600002,-1 -15.700002,-1.7 -24.400002,-1.3 z m 24.400002,3.6 c 0.3,0.3 -1.300002,3.6 -3.500002,7.5 -4.5,7.4 -6.7,8.8 -12.6,7.5 -4.2,-0.9 -7.4,-4 -10.2,-9.9 -2.2,-4.6 -2.2,-5 -0.6,-5.7 1.8,-0.9 26.100002,-0.3 26.900002,0.6 z" />
  <path
     style="fill:#000000;stroke:none;stroke-width:0.05054067"
     inkscape:connector-curvature="0"
     id="path4-3"
     d="m 295.9838,8.1245579 c -7.78326,1.314057 -15.26328,8.8951571 -16.98166,17.2849091 l -0.65703,3.133521 -0.96027,-4.043254 c -0.70757,-3.03244 -1.41514,-4.599201 -2.88083,-6.469205 -3.43676,-4.295957 -10.91678,-8.1370481 -15.76868,-7.934885 -11.27057,0.353785 -20.77222,7.328397 -23.75412,17.335449 -1.01081,3.335684 -0.96027,9.552186 0.0505,13.039492 1.76893,5.963799 6.62083,12.584627 9.29949,12.584627 2.07216,0 0.96027,1.465677 -1.87001,2.527031 -2.37541,0.909732 -3.2346,1.010815 -4.5992,0.606488 -1.87,-0.606488 -3.28514,-0.303244 -2.9819,0.606488 0.10108,0.303244 1.01082,0.75811 2.02163,1.010815 1.6173,0.404328 2.47649,0.252704 5.81217,-1.162437 3.43677,-1.415137 4.14434,-1.51622 5.4584,-1.010811 0.80865,0.303244 3.2346,0.555945 5.40785,0.505406 h 3.89163 v 1.718381 c 0,1.718387 0,1.718387 -2.88082,2.021631 -7.98542,0.909732 -7.17677,0.454866 -9.80489,5.610014 -1.31406,2.527028 -3.74001,6.772444 -5.40785,9.350023 -2.67865,4.245415 -4.49812,7.480018 -8.13705,14.353543 -0.60648,1.1119 -1.06135,2.27433 -1.06135,2.67866 0,0.960268 4.24542,3.436765 7.88434,4.649741 1.76893,0.606488 3.23461,1.364598 3.23461,1.667842 0,3.032443 -12.12976,30.223323 -15.71815,35.277383 -1.21298,1.71838 -1.21298,2.32487 0.0505,2.98191 0.55595,0.30324 1.01081,0.85918 1.01081,1.21297 0,0.40432 0.35379,0.85919 0.80865,1.01081 1.1119,0.40432 11.06841,2.67865 13.74706,3.08298 1.16244,0.20216 2.12271,0.50541 2.12271,0.65703 -0.0505,4.64974 -5.40785,24.91655 -8.84461,33.559 -0.30325,0.80865 -0.0505,0.90974 1.81946,0.90974 h 2.22379 l 3.13352,-9.75436 c 2.9819,-9.04677 4.54866,-15.1622 5.55947,-21.32816 0.35379,-2.07216 0.60649,-2.57757 1.56676,-2.67865 1.31406,-0.20216 1.31406,-0.10108 0.35379,2.27433 -0.40433,0.96027 -0.75811,2.32487 -0.75811,2.9819 0,1.06135 0.2527,1.21297 1.92054,1.21297 1.87001,0 1.87001,-0.0505 2.83028,-3.08298 l 1.01081,-3.08297 1.76893,0.30324 c 1.01081,0.15162 2.47649,0.30324 3.28514,0.30324 h 1.46568 l -0.30324,5.55947 c -0.25271,5.35732 -0.25271,5.61002 0.96027,7.02516 l 1.21297,1.46568 -0.75811,6.01433 c -0.45486,3.28515 -1.01081,7.3284 -1.26351,8.99625 -0.30325,1.66784 -0.50541,3.18406 -0.50541,3.38622 0,0.2527 1.01081,0.40433 2.27433,0.40433 2.17325,0 2.57758,-0.30325 2.27433,-1.76893 -0.15162,-0.75811 2.17325,-16.12247 2.47649,-16.52679 0.15163,-0.15163 3.18407,-0.50541 6.67138,-0.70758 l 6.36812,-0.35378 0.30324,3.99271 c 0.20217,2.22379 0.45487,6.57029 0.65703,9.65327 l 0.35379,5.7111 h 2.67865 c 2.42595,0 3.63893,-0.60649 2.22379,-1.1119 -0.30324,-0.10108 -0.70757,-4.49812 -0.96027,-10.51246 l -0.50541,-10.31029 2.52704,-11.62436 c 1.36459,-6.41866 2.47649,-11.87705 2.47649,-12.07922 0,-0.2527 0.2527,-0.2527 0.5054,-0.10107 0.30325,0.15162 0.50541,1.36459 0.50541,2.67865 0,3.53785 2.52703,25.57357 3.03244,26.02844 0.20216,0.25271 1.21298,-0.10108 2.22379,-0.75811 1.6173,-1.06136 1.76892,-1.3646 1.56676,-2.93136 -0.10108,-0.96027 -0.35378,-3.03244 -0.50541,-4.54866 -0.15162,-1.51622 -0.60648,-5.40785 -1.01081,-8.59191 -0.35378,-3.18407 -0.85919,-7.42948 -1.01081,-9.4511 l -0.35379,-3.63893 2.22379,-0.55595 c 1.16244,-0.30325 2.83028,-0.75811 3.63893,-1.01082 0.80865,-0.30324 1.66784,-0.5054 1.87,-0.5054 0.60649,0 0.55595,7.17677 -0.0505,18.70004 -0.85919,16.2741 -0.96027,20.8733 -0.65702,25.62412 l 0.30324,4.70029 h 2.02163 c 1.81946,0 1.97108,-0.10109 1.66784,-1.21298 -0.15162,-0.65703 0.2527,-12.02868 0.96027,-25.27033 l 1.26352,-24.05736 2.22379,-2.12271 c 2.02162,-2.02163 3.84109,-5.86272 3.84109,-8.33921 0,-0.35378 0.65703,-0.96027 1.46568,-1.3646 0.80865,-0.45486 2.67865,-2.42595 4.14433,-4.44758 2.77974,-3.74001 5.61001,-6.62082 9.09732,-9.14786 2.37542,-1.718385 2.42595,-2.577571 1.01082,-9.552182 -2.62812,-12.382463 -3.63893,-18.346266 -4.14434,-24.411146 -0.30325,-3.638928 -0.70757,-6.721908 -0.90973,-6.924066 -0.35379,-0.40433 -2.42595,-0.707574 -15.31382,-2.223792 l -7.37894,-0.859193 -0.35379,-2.223787 c -0.35378,-2.425952 -0.10108,-3.184061 1.16244,-3.184061 0.45487,0 2.62811,-0.555949 4.90244,-1.263519 4.90245,-1.465681 9.04678,-4.043255 8.693,-5.35731 -0.25271,-1.010814 2.27433,-3.74001 2.93136,-3.133521 0.20216,0.252702 0.2527,0.151622 0.10108,-0.151622 -0.20216,-0.303244 0.35378,-1.516221 1.16243,-2.678656 0.85919,-1.111895 1.51622,-2.27433 1.51622,-2.577574 0,-0.252703 0.20217,-0.505407 0.45487,-0.505407 0.20216,0 0.35378,-2.678655 0.35378,-5.963798 -0.10108,-6.418665 -1.16243,-10.563 -3.63892,-14.404091 -1.46568,-2.223789 -6.87353,-5.8627171 -10.51246,-7.0756931 -2.7292,-0.909732 -8.33921,-1.061354 -12.83733,-0.303244 z m 13.84814,5.2562301 c 2.57757,1.314057 4.24542,2.577573 5.25623,3.942171 3.79055,5.155149 4.8519,14.050306 2.37541,19.154913 -1.76892,3.537847 -4.95298,7.126234 -7.27785,8.238129 -4.49812,2.122706 -11.72544,3.335682 -13.69652,2.324871 -0.45487,-0.303244 -1.41514,-0.606488 -2.12271,-0.75811 -2.02163,-0.454866 -6.16596,-3.436765 -7.88435,-5.711096 -3.03244,-3.992712 -4.14433,-12.88787 -2.27433,-17.840855 1.92055,-5.054067 6.97462,-9.703808 11.9276,-10.967325 1.3646,-0.353785 4.19488,-0.555947 6.2165,-0.454866 3.08298,0.151622 4.29596,0.454866 7.48002,2.072168 z m -44.32417,1.516219 c 4.3465,2.173249 7.48002,5.458393 8.49084,8.794076 0.90973,3.082981 1.06135,10.765162 0.30324,14.707335 l -0.45487,2.274329 -1.46568,-2.274329 c -2.1227,-3.285144 -4.29595,-7.631641 -4.29595,-8.591914 0,-0.404326 0.45486,-2.021626 0.96027,-3.537847 0.55595,-1.51622 1.1119,-3.84109 1.31406,-5.205688 0.35378,-2.324871 0.35378,-2.375412 -0.96027,-2.375412 -1.1119,0 -1.31406,0.202163 -1.31406,1.566761 0,2.072168 -2.12271,8.238129 -4.29596,12.584627 -1.87,3.689468 -7.88434,11.978137 -11.82651,16.274096 -2.32487,2.52703 -2.4765,2.577573 -3.94218,1.971086 -1.56676,-0.657031 -3.53784,-2.425956 -6.36812,-5.862719 -1.97109,-2.375411 -2.57757,-3.689469 -3.63893,-7.833804 -1.41514,-5.559473 0.65703,-13.494358 4.75083,-17.840855 3.43676,-3.689469 4.90244,-4.49812 9.60272,-5.458392 5.81218,-1.212976 9.70381,-0.960273 13.14057,0.80865 z m 2.27433,20.367889 c 0.65703,1.364598 2.17325,3.638928 3.33569,5.104607 2.37541,3.032441 2.37541,3.234603 -0.60649,6.873531 -3.33568,4.043254 -13.34274,7.025154 -17.84085,5.306769 l -1.3646,-0.505405 3.18406,-3.386227 c 3.28514,-3.537845 10.31029,-12.736246 11.22003,-14.707332 0.30324,-0.606488 0.60648,-1.111894 0.65703,-1.111894 0.10108,0 0.75811,1.111894 1.41513,2.425951 z m 13.19112,4.700282 c 2.42595,4.750823 10.05759,10.259756 15.11166,10.866244 l 2.88082,0.353784 -0.30325,2.324872 c -0.20216,1.263516 -0.40432,2.577574 -0.5054,2.880818 -0.10108,0.303244 -2.07217,0.707567 -4.39704,0.960272 -2.27433,0.202161 -5.00353,0.454866 -5.9638,0.555948 -0.96027,0.101079 -2.67865,0.202162 -3.79055,0.252701 -3.18406,0.202167 -3.74001,1.263521 -3.84109,7.277855 -0.0505,5.66056 -0.35378,7.075693 -1.46568,7.075693 -0.60649,0 -0.85919,-1.162435 -1.21297,-5.711095 -0.40433,-4.902444 -0.60649,-5.660554 -1.3646,-5.660554 -0.45487,0 -0.96027,-0.252704 -1.06136,-0.606488 -0.15162,-0.404326 -2.27433,-0.657024 -6.62083,-0.808646 l -6.41866,-0.202168 v -1.971085 c 0,-1.667842 0.15162,-1.971086 1.11189,-1.971086 1.26352,0 6.31759,-2.324869 7.63164,-3.487306 0.50541,-0.454866 1.51622,-1.465676 2.22379,-2.223786 1.26352,-1.314059 1.41515,-1.314059 1.71839,-0.505409 0.2527,0.555948 0.35378,0.151622 0.35378,-1.162437 -0.10108,-3.133519 0.15162,-3.234601 4.24542,-2.173247 4.09379,1.061354 4.44758,1.111893 4.44758,0.555948 0,-0.202165 -1.56676,-0.909732 -3.53785,-1.566761 -1.92054,-0.606488 -3.53784,-1.212976 -3.53784,-1.364598 0,-0.101081 0.35378,-1.51622 0.75811,-3.133522 0.40432,-1.56676 0.85919,-3.588387 1.06135,-4.397037 l 0.30324,-1.516221 0.65703,1.819465 c 0.35379,1.010812 1.06136,2.577574 1.51622,3.537846 z m 27.84791,21.631404 c 2.52703,0.252708 5.9638,0.859196 7.63164,1.314062 l 3.03244,0.859186 -0.70757,2.577574 c -1.66784,6.317583 -4.54866,20.620596 -5.45839,27.140342 -0.20217,1.263516 -0.85919,5.205688 -1.51622,8.844614 -0.65703,3.58839 -1.46568,9.14786 -1.81947,12.33192 l -0.60648,5.7111 -3.23461,1.46568 c -1.81946,0.80865 -3.58838,1.46568 -3.94217,1.46568 -0.35378,0 -1.66784,0.45486 -2.9819,1.06135 -3.79055,1.66784 -4.44758,1.31406 -5.20569,-2.83028 -0.35378,-1.97108 -0.75811,-4.04325 -0.90973,-4.70028 -0.35378,-1.46568 -3.13352,-2.72919 -6.31758,-2.9819 -4.54866,-0.30324 -5.40785,-0.60648 -5.7111,-1.97108 -0.20216,-1.1119 0.0505,-1.41514 1.46568,-2.02163 0.90973,-0.40432 1.81947,-0.70757 2.02163,-0.70757 0.96027,0 3.74001,-1.71838 3.74001,-2.32487 0,-0.40432 1.41514,-1.3646 3.18406,-2.17325 3.03244,-1.41514 3.2346,-1.6173 4.80136,-4.902442 1.87001,-4.19488 2.52704,-7.025152 2.07217,-9.046784 -0.70757,-3.234597 -0.50541,-3.992707 1.31406,-5.205683 4.90244,-3.133527 4.95298,-8.490832 0.15162,-10.512458 -1.6173,-0.657034 -3.68947,-0.909737 -7.98543,-0.960278 -3.18406,-0.05054 -6.2165,-0.252703 -6.67136,-0.454866 -0.70757,-0.35378 -0.85919,-1.314057 -1.01082,-6.115415 l -0.15162,-5.761636 2.52704,-0.202168 c 5.30676,-0.353784 17.89139,-0.303244 22.28843,0.101082 z m -40.382,0.353784 4.14434,0.35379 0.30324,3.335684 c 0.15162,1.819464 0.40433,4.245416 0.50541,5.357305 0.2527,2.021627 0.2527,2.021627 -2.83028,3.79055 -4.04325,2.27433 -8.13705,7.176779 -9.55219,11.321114 -1.41513,3.992707 -1.87,9.653266 -1.01081,12.180294 1.16244,3.487307 10.96733,11.624357 14.75788,12.230847 1.16244,0.15162 1.92055,0.55595 1.92055,0.96027 0,0.80865 -0.65703,0.85919 -3.03245,0.20217 -0.96027,-0.25271 -3.53785,-0.55595 -5.71109,-0.65703 -2.17325,-0.15163 -3.99272,-0.30325 -4.0938,-0.40433 -0.0505,-0.10108 -0.40432,-1.21297 -0.75811,-2.47649 -0.35378,-1.26352 -1.11189,-2.88082 -1.6173,-3.58839 -1.06135,-1.46568 -8.13705,-6.317582 -12.23084,-8.389754 l -2.67865,-1.364598 0.85919,-4.043248 c 1.36459,-6.519746 2.47649,-15.819233 2.47649,-20.873294 0,-6.46921 0.30324,-7.025158 4.49812,-7.631646 4.19487,-0.606488 8.74353,-0.707564 14.0503,-0.303244 z m 55.19041,21.934648 c 1.1119,6.519746 2.2238,12.483549 2.52704,13.241659 0.45487,1.16243 0.35378,1.465674 -0.70757,2.122708 -1.81947,1.212979 -7.3284,6.873529 -8.79408,9.097319 -1.06135,1.66784 -1.3646,1.81947 -1.46568,1.01081 -0.10108,-0.55594 1.21298,-9.1984 2.93136,-19.205448 1.66784,-10.007052 3.03244,-18.396807 3.08298,-18.64951 0.10108,-1.111895 0.50541,1.061354 2.42595,12.382462 z m -77.52938,-9.248941 c -0.70757,6.115425 -2.88082,18.144103 -3.38623,18.649505 -0.2527,0.202168 -6.51974,-2.223784 -7.07569,-2.779732 -0.20216,-0.202162 0.40433,-1.56676 1.3646,-3.032439 0.96027,-1.465685 2.77974,-4.54866 3.94217,-6.772454 2.22379,-4.245416 5.00353,-8.895157 5.30677,-8.945698 0.10108,0 0,1.314062 -0.15162,2.880818 z m 51.80418,1.415144 c 2.07217,0.707564 3.33569,2.577573 2.88082,4.346492 -0.35378,1.263521 -3.03244,4.498124 -3.74001,4.498124 -0.2527,0 -0.85919,-0.859197 -1.41514,-1.870005 -0.55594,-1.061354 -2.32487,-3.184062 -3.89163,-4.801363 -2.57757,-2.577574 -2.77973,-2.880818 -1.76892,-3.08298 1.56676,-0.303244 5.81218,0.202162 7.93488,0.909732 z m -14.35354,1.314052 c 1.16243,0.555952 2.9819,1.768928 4.04325,2.67866 l 1.97108,1.768923 -1.76892,1.51622 c -4.24541,3.740004 -16.5268,10.916783 -22.64222,13.241654 l -1.26352,0.505401 0.30325,-3.436759 c 0.5054,-5.559473 1.56676,-8.33921 4.49812,-11.573817 5.50893,-5.963794 9.4511,-7.22731 14.85896,-4.700282 z m 8.23812,7.833808 c 0.60649,0.960267 1.06136,1.869999 1.06136,1.920545 0,0.303244 -4.3465,1.263517 -6.82299,1.465674 -2.47649,0.252708 -2.52703,0.252708 -1.26352,-0.606488 0.65703,-0.454866 2.27433,-1.667842 3.53785,-2.67865 1.26351,-1.010813 2.32487,-1.87001 2.37541,-1.87001 0,-0.05054 0.50541,0.75811 1.11189,1.768929 z m 2.32487,8.035965 c 0,5.559473 -4.70028,12.584628 -9.85542,14.707338 -2.93136,1.26351 -7.63164,1.46568 -9.55219,0.5054 -3.99272,-2.12271 -9.75435,-7.17677 -10.36084,-9.248945 -0.30325,-0.909732 -0.0505,-1.16243 1.56676,-1.667842 1.06135,-0.353779 5.05407,-2.223784 8.9457,-4.144329 6.62083,-3.335684 7.17678,-3.537846 11.16949,-3.79055 2.32487,-0.101086 4.8519,-0.40433 5.66055,-0.606488 1.87001,-0.505406 2.37541,0.35378 2.42595,4.245416 z m -45.58768,7.884348 c 4.19488,2.1227 8.59191,5.15514 9.90597,6.82299 1.41514,1.81946 2.42595,5.20568 1.71838,5.66055 -0.30324,0.20216 -1.06135,2.07217 -1.71838,4.14433 -1.06135,3.58839 -4.80136,13.64598 -6.26704,16.93113 -0.35379,0.80865 -0.80865,2.02162 -1.01081,2.62811 -0.45487,1.56677 -1.76893,1.51622 -12.12976,-0.60649 -4.70029,-0.96027 -8.79408,-1.76891 -8.99624,-1.76891 -0.20216,0 0.60649,-1.97109 1.81946,-4.44759 1.21298,-2.42595 2.67866,-5.30677 3.18406,-6.41866 0.55595,-1.1119 2.02163,-3.94217 3.33569,-6.31759 2.12271,-3.89163 4.54866,-10.41137 5.9638,-16.07193 0.30324,-1.16243 0.65702,-2.122705 0.80865,-2.122705 0.10108,0 1.66784,0.707565 3.38622,1.566765 z m 30.57711,15.61706 c 4.90244,0.85919 8.9457,1.6173 9.04678,1.71838 0.10108,0.10109 -0.30325,1.61731 -0.85919,3.38623 -0.55595,1.76892 -1.01082,3.84109 -1.01082,4.5992 0,0.75811 -0.90973,4.5992 -2.02162,8.49084 -1.06136,3.89162 -2.37542,9.65326 -2.88082,12.78678 l -0.85919,5.76163 -5.25623,0.35379 c -2.88083,0.15163 -5.4584,0.20217 -5.66056,0.0505 -0.25271,-0.15162 -1.31406,-0.30324 -2.42595,-0.35378 -2.52704,-0.10108 -2.4765,0.15162 -2.07217,-12.78679 0.20216,-5.30677 0.35378,-13.19112 0.40432,-17.58816 l 0.0505,-7.93488 h 2.32488 c 1.26352,0 6.31758,0.70757 11.22003,1.51622 z m -18.39681,19.35708 c -0.15162,1.56676 -0.45487,2.98189 -0.60649,3.08298 -0.20216,0.10108 -1.21297,0.0505 -2.22379,-0.0506 -2.42595,-0.30324 -2.42595,-0.65703 0.10109,-7.12623 1.11189,-2.77974 2.07216,-5.40785 2.07216,-5.76164 0.0505,-0.35378 0.30325,1.06136 0.50541,3.13352 0.2527,2.07218 0.30324,5.10462 0.15162,6.72191 z" />
</svg>
