<?xml version="1.0" encoding="UTF-8"?>
<svg xmlns="http://www.w3.org/2000/svg" xmlns:xlink="http://www.w3.org/1999/xlink" width="1024pt" height="768pt" viewBox="0 0 1024 768" version="1.1">
<g id="surface51">
<path style=" stroke:none;fill-rule:nonzero;fill:rgb(0%,0%,0%);fill-opacity:1;" d="M 0 0 L 204.800781 0 L 204.800781 153.601562 L 0 153.601562 Z M 0 0 "/>
<path style="fill:none;stroke-width:1;stroke-linecap:round;stroke-linejoin:round;stroke:rgb(0%,0%,0%);stroke-opacity:1;stroke-miterlimit:10;" d="M 0.5 0.5 L 203.5 0.5 L 203.5 152.5 L 0.5 152.5 Z M 0.5 0.5 "/>
<path style=" stroke:none;fill-rule:nonzero;fill:rgb(100%,0%,0%);fill-opacity:1;" d="M 204.800781 0 L 409.601562 0 L 409.601562 153.601562 L 204.800781 153.601562 Z M 204.800781 0 "/>
<path style="fill:none;stroke-width:1;stroke-linecap:round;stroke-linejoin:round;stroke:rgb(100%,0%,0%);stroke-opacity:1;stroke-miterlimit:10;" d="M 204.5 0.5 L 408.5 0.5 L 408.5 152.5 L 204.5 152.5 Z M 204.5 0.5 "/>
<path style=" stroke:none;fill-rule:nonzero;fill:rgb(0%,39.215686%,0%);fill-opacity:1;" d="M 409.601562 0 L 614.402344 0 L 614.402344 153.601562 L 409.601562 153.601562 Z M 409.601562 0 "/>
<path style="fill:none;stroke-width:1;stroke-linecap:round;stroke-linejoin:round;stroke:rgb(0%,39.215686%,0%);stroke-opacity:1;stroke-miterlimit:10;" d="M 409.5 0.5 L 613.5 0.5 L 613.5 152.5 L 409.5 152.5 Z M 409.5 0.5 "/>
<path style=" stroke:none;fill-rule:nonzero;fill:rgb(100%,0%,0%);fill-opacity:1;" d="M 614.398438 0 L 819.199219 0 L 819.199219 153.601562 L 614.398438 153.601562 Z M 614.398438 0 "/>
<path style="fill:none;stroke-width:1;stroke-linecap:round;stroke-linejoin:round;stroke:rgb(100%,0%,0%);stroke-opacity:1;stroke-miterlimit:10;" d="M 614.5 0.5 L 818.5 0.5 L 818.5 152.5 L 614.5 152.5 Z M 614.5 0.5 "/>
<path style=" stroke:none;fill-rule:nonzero;fill:rgb(0%,0%,0%);fill-opacity:1;" d="M 819.199219 0 L 1024 0 L 1024 153.601562 L 819.199219 153.601562 Z M 819.199219 0 "/>
<path style="fill:none;stroke-width:1;stroke-linecap:round;stroke-linejoin:round;stroke:rgb(0%,0%,0%);stroke-opacity:1;stroke-miterlimit:10;" d="M 819.5 0.5 L 1023.5 0.5 L 1023.5 152.5 L 819.5 152.5 Z M 819.5 0.5 "/>
<path style=" stroke:none;fill-rule:nonzero;fill:rgb(100%,0%,0%);fill-opacity:1;" d="M 0 153.601562 L 204.800781 153.601562 L 204.800781 307.203125 L 0 307.203125 Z M 0 153.601562 "/>
<path style="fill:none;stroke-width:1;stroke-linecap:round;stroke-linejoin:round;stroke:rgb(100%,0%,0%);stroke-opacity:1;stroke-miterlimit:10;" d="M 0.5 153.5 L 203.5 153.5 L 203.5 306.5 L 0.5 306.5 Z M 0.5 153.5 "/>
<path style=" stroke:none;fill-rule:nonzero;fill:rgb(0%,0%,0%);fill-opacity:1;" d="M 204.800781 153.601562 L 409.601562 153.601562 L 409.601562 307.203125 L 204.800781 307.203125 Z M 204.800781 153.601562 "/>
<path style="fill:none;stroke-width:1;stroke-linecap:round;stroke-linejoin:round;stroke:rgb(0%,0%,0%);stroke-opacity:1;stroke-miterlimit:10;" d="M 204.5 153.5 L 408.5 153.5 L 408.5 306.5 L 204.5 306.5 Z M 204.5 153.5 "/>
<path style=" stroke:none;fill-rule:nonzero;fill:rgb(0%,39.215686%,0%);fill-opacity:1;" d="M 409.601562 153.601562 L 614.402344 153.601562 L 614.402344 307.203125 L 409.601562 307.203125 Z M 409.601562 153.601562 "/>
<path style="fill:none;stroke-width:1;stroke-linecap:round;stroke-linejoin:round;stroke:rgb(0%,39.215686%,0%);stroke-opacity:1;stroke-miterlimit:10;" d="M 409.5 153.5 L 613.5 153.5 L 613.5 306.5 L 409.5 306.5 Z M 409.5 153.5 "/>
<path style=" stroke:none;fill-rule:nonzero;fill:rgb(0%,0%,0%);fill-opacity:1;" d="M 614.398438 153.601562 L 819.199219 153.601562 L 819.199219 307.203125 L 614.398438 307.203125 Z M 614.398438 153.601562 "/>
<path style="fill:none;stroke-width:1;stroke-linecap:round;stroke-linejoin:round;stroke:rgb(0%,0%,0%);stroke-opacity:1;stroke-miterlimit:10;" d="M 614.5 153.5 L 818.5 153.5 L 818.5 306.5 L 614.5 306.5 Z M 614.5 153.5 "/>
<path style=" stroke:none;fill-rule:nonzero;fill:rgb(100%,0%,0%);fill-opacity:1;" d="M 819.199219 153.601562 L 1024 153.601562 L 1024 307.203125 L 819.199219 307.203125 Z M 819.199219 153.601562 "/>
<path style="fill:none;stroke-width:1;stroke-linecap:round;stroke-linejoin:round;stroke:rgb(100%,0%,0%);stroke-opacity:1;stroke-miterlimit:10;" d="M 819.5 153.5 L 1023.5 153.5 L 1023.5 306.5 L 819.5 306.5 Z M 819.5 153.5 "/>
<path style=" stroke:none;fill-rule:nonzero;fill:rgb(0%,39.215686%,0%);fill-opacity:1;" d="M 0 307.199219 L 1024 307.199219 L 1024 460.800781 L 0 460.800781 Z M 0 307.199219 "/>
<path style="fill:none;stroke-width:1;stroke-linecap:round;stroke-linejoin:round;stroke:rgb(0%,39.215686%,0%);stroke-opacity:1;stroke-miterlimit:10;" d="M 0.5 307.5 L 1023.5 307.5 L 1023.5 459.5 L 0.5 459.5 Z M 0.5 307.5 "/>
<path style=" stroke:none;fill-rule:nonzero;fill:rgb(100%,0%,0%);fill-opacity:1;" d="M 0 460.800781 L 204.800781 460.800781 L 204.800781 614.402344 L 0 614.402344 Z M 0 460.800781 "/>
<path style="fill:none;stroke-width:1;stroke-linecap:round;stroke-linejoin:round;stroke:rgb(100%,0%,0%);stroke-opacity:1;stroke-miterlimit:10;" d="M 0.5 460.5 L 203.5 460.5 L 203.5 613.5 L 0.5 613.5 Z M 0.5 460.5 "/>
<path style=" stroke:none;fill-rule:nonzero;fill:rgb(0%,0%,0%);fill-opacity:1;" d="M 204.800781 460.800781 L 409.601562 460.800781 L 409.601562 614.402344 L 204.800781 614.402344 Z M 204.800781 460.800781 "/>
<path style="fill:none;stroke-width:1;stroke-linecap:round;stroke-linejoin:round;stroke:rgb(0%,0%,0%);stroke-opacity:1;stroke-miterlimit:10;" d="M 204.5 460.5 L 408.5 460.5 L 408.5 613.5 L 204.5 613.5 Z M 204.5 460.5 "/>
<path style=" stroke:none;fill-rule:nonzero;fill:rgb(0%,39.215686%,0%);fill-opacity:1;" d="M 409.601562 460.800781 L 614.402344 460.800781 L 614.402344 614.402344 L 409.601562 614.402344 Z M 409.601562 460.800781 "/>
<path style="fill:none;stroke-width:1;stroke-linecap:round;stroke-linejoin:round;stroke:rgb(0%,39.215686%,0%);stroke-opacity:1;stroke-miterlimit:10;" d="M 409.5 460.5 L 613.5 460.5 L 613.5 613.5 L 409.5 613.5 Z M 409.5 460.5 "/>
<path style=" stroke:none;fill-rule:nonzero;fill:rgb(0%,0%,0%);fill-opacity:1;" d="M 614.398438 460.800781 L 819.199219 460.800781 L 819.199219 614.402344 L 614.398438 614.402344 Z M 614.398438 460.800781 "/>
<path style="fill:none;stroke-width:1;stroke-linecap:round;stroke-linejoin:round;stroke:rgb(0%,0%,0%);stroke-opacity:1;stroke-miterlimit:10;" d="M 614.5 460.5 L 818.5 460.5 L 818.5 613.5 L 614.5 613.5 Z M 614.5 460.5 "/>
<path style=" stroke:none;fill-rule:nonzero;fill:rgb(100%,0%,0%);fill-opacity:1;" d="M 819.199219 460.800781 L 1024 460.800781 L 1024 614.402344 L 819.199219 614.402344 Z M 819.199219 460.800781 "/>
<path style="fill:none;stroke-width:1;stroke-linecap:round;stroke-linejoin:round;stroke:rgb(100%,0%,0%);stroke-opacity:1;stroke-miterlimit:10;" d="M 819.5 460.5 L 1023.5 460.5 L 1023.5 613.5 L 819.5 613.5 Z M 819.5 460.5 "/>
<path style=" stroke:none;fill-rule:nonzero;fill:rgb(0%,0%,0%);fill-opacity:1;" d="M 0 614.398438 L 204.800781 614.398438 L 204.800781 768 L 0 768 Z M 0 614.398438 "/>
<path style="fill:none;stroke-width:1;stroke-linecap:round;stroke-linejoin:round;stroke:rgb(0%,0%,0%);stroke-opacity:1;stroke-miterlimit:10;" d="M 0.5 614.5 L 203.5 614.5 L 203.5 767.5 L 0.5 767.5 Z M 0.5 614.5 "/>
<path style=" stroke:none;fill-rule:nonzero;fill:rgb(100%,0%,0%);fill-opacity:1;" d="M 204.800781 614.398438 L 409.601562 614.398438 L 409.601562 768 L 204.800781 768 Z M 204.800781 614.398438 "/>
<path style="fill:none;stroke-width:1;stroke-linecap:round;stroke-linejoin:round;stroke:rgb(100%,0%,0%);stroke-opacity:1;stroke-miterlimit:10;" d="M 204.5 614.5 L 408.5 614.5 L 408.5 767.5 L 204.5 767.5 Z M 204.5 614.5 "/>
<path style=" stroke:none;fill-rule:nonzero;fill:rgb(0%,39.215686%,0%);fill-opacity:1;" d="M 409.601562 614.398438 L 614.402344 614.398438 L 614.402344 768 L 409.601562 768 Z M 409.601562 614.398438 "/>
<path style="fill:none;stroke-width:1;stroke-linecap:round;stroke-linejoin:round;stroke:rgb(0%,39.215686%,0%);stroke-opacity:1;stroke-miterlimit:10;" d="M 409.5 614.5 L 613.5 614.5 L 613.5 767.5 L 409.5 767.5 Z M 409.5 614.5 "/>
<path style=" stroke:none;fill-rule:nonzero;fill:rgb(100%,0%,0%);fill-opacity:1;" d="M 614.398438 614.398438 L 819.199219 614.398438 L 819.199219 768 L 614.398438 768 Z M 614.398438 614.398438 "/>
<path style="fill:none;stroke-width:1;stroke-linecap:round;stroke-linejoin:round;stroke:rgb(100%,0%,0%);stroke-opacity:1;stroke-miterlimit:10;" d="M 614.5 614.5 L 818.5 614.5 L 818.5 767.5 L 614.5 767.5 Z M 614.5 614.5 "/>
<path style=" stroke:none;fill-rule:nonzero;fill:rgb(0%,0%,0%);fill-opacity:1;" d="M 819.199219 614.398438 L 1024 614.398438 L 1024 768 L 819.199219 768 Z M 819.199219 614.398438 "/>
<path style="fill:none;stroke-width:1;stroke-linecap:round;stroke-linejoin:round;stroke:rgb(0%,0%,0%);stroke-opacity:1;stroke-miterlimit:10;" d="M 819.5 614.5 L 1023.5 614.5 L 1023.5 767.5 L 819.5 767.5 Z M 819.5 614.5 "/>
</g>
</svg>
