<?xml version="1.0" encoding="UTF-8"?>
<svg xmlns="http://www.w3.org/2000/svg" xmlns:xlink="http://www.w3.org/1999/xlink" width="751pt" height="526pt" viewBox="0 0 751 526" version="1.1">
<defs>
<g>
<symbol overflow="visible" id="glyph0-0">
<path style="stroke:none;" d="M 0.59375 2.125 L 0.59375 -8.46875 L 6.59375 -8.46875 L 6.59375 2.125 Z M 1.265625 1.453125 L 5.9375 1.453125 L 5.9375 -7.78125 L 1.265625 -7.78125 Z M 1.265625 1.453125 "/>
</symbol>
<symbol overflow="visible" id="glyph0-1">
<path style="stroke:none;" d="M 1.171875 -8.75 L 2.9375 -8.75 L 5.171875 -2.796875 L 7.421875 -8.75 L 9.1875 -8.75 L 9.1875 0 L 8.03125 0 L 8.03125 -7.6875 L 5.765625 -1.6875 L 4.578125 -1.6875 L 2.328125 -7.6875 L 2.328125 0 L 1.171875 0 Z M 1.171875 -8.75 "/>
</symbol>
<symbol overflow="visible" id="glyph0-2">
<path style="stroke:none;" d="M 1.125 -6.5625 L 2.203125 -6.5625 L 2.203125 0 L 1.125 0 Z M 1.125 -9.125 L 2.203125 -9.125 L 2.203125 -7.75 L 1.125 -7.75 Z M 1.125 -9.125 "/>
</symbol>
<symbol overflow="visible" id="glyph0-3">
<path style="stroke:none;" d="M 3.671875 -5.8125 C 3.097656 -5.8125 2.640625 -5.582031 2.296875 -5.125 C 1.960938 -4.675781 1.796875 -4.0625 1.796875 -3.28125 C 1.796875 -2.488281 1.960938 -1.867188 2.296875 -1.421875 C 2.628906 -0.972656 3.085938 -0.75 3.671875 -0.75 C 4.242188 -0.75 4.695312 -0.972656 5.03125 -1.421875 C 5.375 -1.878906 5.546875 -2.5 5.546875 -3.28125 C 5.546875 -4.050781 5.375 -4.664062 5.03125 -5.125 C 4.695312 -5.582031 4.242188 -5.8125 3.671875 -5.8125 Z M 3.671875 -6.71875 C 4.609375 -6.71875 5.34375 -6.410156 5.875 -5.796875 C 6.414062 -5.191406 6.6875 -4.351562 6.6875 -3.28125 C 6.6875 -2.207031 6.414062 -1.363281 5.875 -0.75 C 5.34375 -0.132812 4.609375 0.171875 3.671875 0.171875 C 2.734375 0.171875 1.992188 -0.132812 1.453125 -0.75 C 0.921875 -1.363281 0.65625 -2.207031 0.65625 -3.28125 C 0.65625 -4.351562 0.921875 -5.191406 1.453125 -5.796875 C 1.992188 -6.410156 2.734375 -6.71875 3.671875 -6.71875 Z M 3.671875 -6.71875 "/>
</symbol>
<symbol overflow="visible" id="glyph0-4">
<path style="stroke:none;" d=""/>
</symbol>
<symbol overflow="visible" id="glyph0-5">
<path style="stroke:none;" d="M 6.421875 -8.46875 L 6.421875 -7.3125 C 5.972656 -7.519531 5.546875 -7.675781 5.140625 -7.78125 C 4.742188 -7.894531 4.363281 -7.953125 4 -7.953125 C 3.351562 -7.953125 2.851562 -7.828125 2.5 -7.578125 C 2.15625 -7.328125 1.984375 -6.96875 1.984375 -6.5 C 1.984375 -6.113281 2.097656 -5.820312 2.328125 -5.625 C 2.554688 -5.425781 3 -5.269531 3.65625 -5.15625 L 4.359375 -5 C 5.242188 -4.832031 5.894531 -4.535156 6.3125 -4.109375 C 6.738281 -3.691406 6.953125 -3.128906 6.953125 -2.421875 C 6.953125 -1.566406 6.664062 -0.921875 6.09375 -0.484375 C 5.53125 -0.046875 4.695312 0.171875 3.59375 0.171875 C 3.1875 0.171875 2.75 0.125 2.28125 0.03125 C 1.8125 -0.0625 1.328125 -0.203125 0.828125 -0.390625 L 0.828125 -1.609375 C 1.304688 -1.335938 1.773438 -1.132812 2.234375 -1 C 2.703125 -0.863281 3.15625 -0.796875 3.59375 -0.796875 C 4.269531 -0.796875 4.789062 -0.925781 5.15625 -1.1875 C 5.53125 -1.457031 5.71875 -1.835938 5.71875 -2.328125 C 5.71875 -2.753906 5.582031 -3.085938 5.3125 -3.328125 C 5.050781 -3.578125 4.617188 -3.757812 4.015625 -3.875 L 3.296875 -4.015625 C 2.410156 -4.191406 1.769531 -4.46875 1.375 -4.84375 C 0.988281 -5.21875 0.796875 -5.738281 0.796875 -6.40625 C 0.796875 -7.1875 1.066406 -7.796875 1.609375 -8.234375 C 2.148438 -8.679688 2.898438 -8.90625 3.859375 -8.90625 C 4.273438 -8.90625 4.691406 -8.867188 5.109375 -8.796875 C 5.535156 -8.722656 5.972656 -8.613281 6.421875 -8.46875 Z M 6.421875 -8.46875 "/>
</symbol>
<symbol overflow="visible" id="glyph0-6">
<path style="stroke:none;" d="M 4.109375 -3.296875 C 3.242188 -3.296875 2.640625 -3.195312 2.296875 -3 C 1.960938 -2.800781 1.796875 -2.460938 1.796875 -1.984375 C 1.796875 -1.597656 1.921875 -1.289062 2.171875 -1.0625 C 2.429688 -0.84375 2.773438 -0.734375 3.203125 -0.734375 C 3.804688 -0.734375 4.285156 -0.941406 4.640625 -1.359375 C 5.003906 -1.785156 5.1875 -2.351562 5.1875 -3.0625 L 5.1875 -3.296875 Z M 6.265625 -3.75 L 6.265625 0 L 5.1875 0 L 5.1875 -1 C 4.9375 -0.601562 4.628906 -0.304688 4.265625 -0.109375 C 3.898438 0.078125 3.453125 0.171875 2.921875 0.171875 C 2.242188 0.171875 1.707031 -0.015625 1.3125 -0.390625 C 0.914062 -0.773438 0.71875 -1.28125 0.71875 -1.90625 C 0.71875 -2.644531 0.960938 -3.203125 1.453125 -3.578125 C 1.953125 -3.953125 2.691406 -4.140625 3.671875 -4.140625 L 5.1875 -4.140625 L 5.1875 -4.25 C 5.1875 -4.75 5.019531 -5.132812 4.6875 -5.40625 C 4.363281 -5.675781 3.910156 -5.8125 3.328125 -5.8125 C 2.953125 -5.8125 2.582031 -5.765625 2.21875 -5.671875 C 1.863281 -5.578125 1.523438 -5.441406 1.203125 -5.265625 L 1.203125 -6.265625 C 1.597656 -6.421875 1.976562 -6.535156 2.34375 -6.609375 C 2.71875 -6.679688 3.082031 -6.71875 3.4375 -6.71875 C 4.382812 -6.71875 5.09375 -6.472656 5.5625 -5.984375 C 6.03125 -5.492188 6.265625 -4.75 6.265625 -3.75 Z M 6.265625 -3.75 "/>
</symbol>
<symbol overflow="visible" id="glyph0-7">
<path style="stroke:none;" d="M 2.203125 -8.421875 L 2.203125 -6.5625 L 4.421875 -6.5625 L 4.421875 -5.71875 L 2.203125 -5.71875 L 2.203125 -2.15625 C 2.203125 -1.625 2.273438 -1.28125 2.421875 -1.125 C 2.566406 -0.976562 2.863281 -0.90625 3.3125 -0.90625 L 4.421875 -0.90625 L 4.421875 0 L 3.3125 0 C 2.476562 0 1.898438 -0.15625 1.578125 -0.46875 C 1.265625 -0.78125 1.109375 -1.34375 1.109375 -2.15625 L 1.109375 -5.71875 L 0.328125 -5.71875 L 0.328125 -6.5625 L 1.109375 -6.5625 L 1.109375 -8.421875 Z M 2.203125 -8.421875 "/>
</symbol>
</g>
</defs>
<g id="surface41327">
<path style=" stroke:none;fill-rule:nonzero;fill:rgb(0%,0%,0%);fill-opacity:1;" d="M 119.230469 3.003906 C 111.484375 4.003906 100.867188 7.125 93.996094 10.625 C 80.378906 17.496094 69.261719 33.859375 62.265625 57.347656 C 58.765625 69.089844 59.265625 87.203125 63.386719 99.949219 C 66.636719 109.816406 77.253906 126.933594 80.753906 128.304688 C 83.375 129.179688 77.003906 135.050781 69.386719 138.800781 C 64.761719 141.050781 63.136719 142.296875 64.636719 142.671875 C 68.136719 143.421875 75.132812 140.550781 80.628906 135.925781 L 85.75 131.679688 L 89 134.054688 C 94.246094 137.675781 107.113281 141.546875 116.734375 142.421875 L 125.476562 143.296875 L 125.476562 149.167969 C 125.476562 152.417969 125.101562 156.914062 124.726562 159.039062 L 123.976562 162.910156 L 78.628906 162.910156 L 74.507812 173.90625 C 67.011719 193.269531 65.261719 197.015625 58.140625 209.757812 C 54.144531 216.628906 49.148438 225.875 46.773438 230.371094 C 44.523438 234.871094 40.402344 242.738281 37.652344 247.863281 C 19.539062 281.59375 5.171875 315.449219 7.421875 319.070312 C 9.042969 321.695312 11.667969 320.195312 12.417969 316.199219 C 14.167969 307.953125 24.910156 283.839844 38.902344 256.605469 C 60.390625 215.007812 63.511719 209.132812 64.011719 209.757812 C 64.886719 210.632812 57.140625 236.492188 43.648438 277.21875 C 38.652344 292.335938 33.90625 307.828125 33.03125 311.574219 C 31.03125 320.695312 23.785156 345.304688 20.539062 354.675781 C 17.414062 363.046875 8.546875 397.527344 7.421875 405.644531 L 6.546875 410.894531 L 13.292969 414.265625 C 21.289062 418.265625 44.398438 424.511719 64.261719 427.757812 C 72.132812 429.132812 78.878906 430.257812 79.128906 430.257812 C 79.378906 430.257812 79.253906 430.632812 78.878906 431.132812 C 78.378906 431.507812 78.753906 432.753906 79.628906 433.753906 C 80.878906 435.378906 82.003906 478.355469 81.753906 520.453125 C 81.753906 523.078125 82.378906 523.953125 84.25 523.953125 C 86 523.953125 86.75 523.078125 86.75 521.328125 C 86.75 519.953125 87.25 519.082031 87.875 519.582031 C 88.5 519.953125 89.5 519.707031 89.875 518.957031 C 90.371094 518.207031 89.996094 517.832031 89 517.957031 C 87.75 518.207031 87.25 511.210938 86.625 482.101562 C 86.125 462.113281 85.375 442.625 84.875 438.625 C 84.25 434.628906 84.375 431.507812 85 431.507812 C 88.5 431.632812 126.976562 436.378906 127.226562 436.753906 C 127.851562 437.628906 130.472656 459.988281 131.222656 470.234375 C 131.972656 481.476562 136.222656 512.585938 137.84375 518.582031 C 138.46875 520.953125 139.71875 522.203125 141.59375 522.453125 C 143.96875 522.828125 144.339844 522.453125 143.71875 520.453125 C 141.46875 513.457031 137.71875 490.097656 136.597656 475.855469 C 135.847656 466.859375 134.597656 454.867188 133.597656 448.996094 C 132.722656 443.125 132.347656 438.003906 132.722656 437.503906 C 133.222656 437.003906 139.84375 437.253906 147.339844 437.878906 C 154.960938 438.625 169.203125 439 179.195312 438.75 C 194.4375 438.253906 199.933594 437.503906 213.550781 434.003906 C 222.546875 431.757812 231.417969 429.132812 233.289062 428.132812 C 236.664062 426.507812 236.914062 426.507812 237.539062 428.882812 C 238.289062 431.757812 241.660156 432.503906 241.660156 429.757812 C 241.660156 428.882812 240.535156 423.636719 239.285156 418.265625 C 237.914062 412.765625 235.164062 399.898438 233.039062 389.65625 C 230.917969 379.285156 227.292969 364.667969 224.796875 357.175781 C 222.296875 349.554688 218.671875 336.6875 216.675781 328.441406 C 199.308594 255.984375 186.566406 198.390625 186.691406 193.519531 C 186.816406 192.894531 188.691406 197.265625 191.066406 203.511719 C 202.433594 233.996094 215.675781 262.855469 218.421875 262.855469 C 219.421875 262.855469 219.921875 260.230469 219.796875 254.984375 C 219.796875 244.238281 229.292969 192.894531 231.292969 192.894531 C 233.164062 192.894531 233.539062 189.644531 231.792969 188.644531 C 231.167969 188.273438 231.292969 185.148438 231.914062 181.527344 C 234 175.625 226.792969 182.523438 226.792969 182.523438 C 227.667969 184.898438 227.667969 187.648438 226.792969 191.019531 C 226.167969 193.769531 224.421875 202.511719 222.921875 210.382812 C 221.546875 218.253906 219.796875 226.75 219.171875 229.121094 C 218.546875 231.496094 217.675781 236.242188 217.175781 239.742188 C 215.925781 249.238281 214.925781 249.984375 211.925781 243.863281 C 206.929688 233.871094 187.691406 184.273438 184.070312 172.15625 C 183.445312 169.90625 182.195312 167.660156 181.320312 166.910156 C 179.195312 165.160156 156.710938 162.910156 141.71875 162.910156 L 129.226562 162.910156 L 129.226562 143.046875 L 134.597656 143.171875 C 141.21875 143.296875 158.332031 136.550781 168.203125 129.929688 C 174.449219 125.933594 175.449219 125.558594 178.945312 126.808594 C 181.070312 127.558594 183.820312 127.929688 185.066406 127.558594 C 186.691406 127.183594 186.066406 126.558594 182.570312 124.933594 L 177.820312 122.808594 L 181.695312 117.9375 C 186.691406 111.566406 192.1875 99.199219 194.3125 89.828125 C 196.5625 79.335938 196.3125 55.597656 193.6875 45.105469 C 191.5625 35.984375 185.816406 25.992188 179.070312 19.617188 C 172.574219 13.621094 157.582031 6.75 144.839844 4.128906 C 132.972656 1.628906 130.351562 1.503906 119.230469 3.003906 Z M 147.714844 8.625 C 156.960938 10.875 171.199219 17.746094 177.199219 22.992188 C 182.445312 27.613281 187.191406 35.484375 189.066406 42.730469 C 196.0625 68.589844 191.066406 99.324219 177.199219 116.3125 L 172.824219 121.683594 L 168.328125 119.8125 C 154.585938 114.066406 137.71875 97.074219 130.472656 81.832031 C 123.480469 67.089844 123.726562 67.214844 120.605469 76.085938 C 117.355469 84.957031 110.113281 96.824219 101.867188 106.445312 C 97.992188 111.066406 92.746094 117.4375 90.121094 120.6875 C 84.375 127.929688 83.25 127.433594 75.507812 115.8125 C 68.261719 104.695312 65.386719 95.699219 64.636719 81.707031 C 63.761719 66.964844 66.636719 54.347656 74.382812 38.609375 C 82.753906 21.367188 92.121094 13.746094 110.484375 8.75 C 119.480469 6.375 137.71875 6.25 147.714844 8.625 Z M 129.226562 86.457031 C 134.472656 96.449219 152.960938 115.8125 162.082031 120.4375 C 165.328125 122.183594 167.953125 123.933594 167.953125 124.308594 C 167.953125 125.433594 152.335938 133.429688 144.214844 136.550781 C 130.597656 141.671875 106.238281 139.550781 92.121094 131.929688 L 88.125 129.804688 L 96.121094 119.8125 C 111.109375 101.320312 114.984375 95.824219 119.355469 86.957031 C 121.730469 81.957031 123.851562 77.960938 124.226562 77.960938 C 124.601562 77.960938 126.851562 81.707031 129.226562 86.457031 Z M 164.082031 167.910156 C 170.453125 168.65625 176.699219 169.78125 177.820312 170.28125 C 179.195312 171.15625 180.320312 175.652344 181.945312 186.273438 C 185.066406 208.261719 186.441406 216.003906 189.816406 229.121094 C 191.4375 235.621094 194.4375 249.359375 196.6875 259.730469 C 198.808594 269.972656 201.558594 282.46875 202.933594 287.214844 C 204.183594 292.085938 207.054688 304.203125 209.179688 314.074219 C 211.429688 324.066406 215.925781 341.433594 219.421875 352.800781 C 224.171875 368.667969 235.289062 416.265625 235.414062 421.761719 C 235.414062 424.386719 202.683594 433.128906 187.316406 434.628906 C 173.449219 436.003906 100.617188 430.632812 84.75 427.132812 C 83.375 426.882812 76.382812 425.757812 69.136719 424.636719 C 52.894531 422.136719 32.78125 417.390625 20.914062 413.265625 C 10.167969 409.394531 10.292969 410.019531 14.792969 391.902344 C 19.664062 371.914062 21.164062 366.667969 27.285156 348.429688 C 30.53125 338.808594 35.40625 322.445312 38.152344 312.199219 C 40.902344 301.832031 46.398438 283.589844 50.519531 271.597656 C 54.519531 259.605469 60.140625 241.867188 62.886719 232.246094 C 74.007812 193.019531 81.878906 167.285156 82.878906 166.660156 C 84.75 165.535156 151.585938 166.660156 164.082031 167.910156 Z M 164.082031 167.910156 "/>
<path style=" stroke:none;fill-rule:nonzero;fill:rgb(0%,0%,0%);fill-opacity:1;" d="M 581.589844 135.550781 C 562.226562 138.925781 540.863281 158.664062 538.238281 175.402344 C 537.613281 179.027344 536.613281 180.902344 535.117188 181.277344 C 533.992188 181.652344 531.117188 185.398438 528.996094 189.519531 C 521.625 203.636719 516 211.632812 514.003906 210.882812 C 513.003906 210.507812 502.382812 209.632812 490.390625 208.882812 L 468.527344 207.636719 L 466.53125 210.507812 C 465.53125 212.132812 458.910156 221.253906 451.914062 230.996094 C 440.421875 246.738281 402.566406 302.832031 385.703125 329.191406 L 379.082031 339.433594 L 379.082031 358.921875 C 378.957031 369.667969 378.457031 385.65625 377.832031 394.652344 C 375.957031 419.636719 372.835938 483.101562 372.835938 497.46875 C 373.066406 504.539062 369.378906 520.105469 373.957031 520.203125 C 375.957031 520.203125 377.832031 519.457031 378.082031 518.582031 C 378.457031 517.832031 378.832031 504.464844 378.957031 488.972656 C 379.082031 461.738281 380.457031 430.007812 382.828125 395.277344 C 383.453125 386.03125 383.953125 370.667969 384.078125 361.171875 L 384.078125 343.808594 L 388.824219 344.554688 C 391.324219 344.929688 407.191406 345.554688 424.054688 345.804688 C 440.921875 346.179688 456.910156 346.804688 459.660156 347.179688 L 464.65625 348.054688 L 464.28125 426.257812 C 466.882812 434.507812 460.097656 506.773438 464.65625 507.710938 C 466.53125 507.710938 467.78125 506.960938 467.78125 505.964844 C 467.78125 505.089844 468.527344 503.589844 469.402344 502.839844 C 471.277344 501.339844 472.027344 493.46875 470.152344 494.59375 C 469.527344 495.09375 469.527344 494.09375 470.277344 492.222656 C 470.902344 490.347656 471.027344 487.722656 470.402344 486.222656 C 469.902344 484.601562 469.277344 452.867188 469.152344 415.515625 L 468.777344 347.804688 L 472.652344 347.804688 C 477.523438 347.804688 530.242188 349.804688 570.84375 351.550781 C 588.085938 352.300781 612.070312 353.800781 624.1875 354.800781 C 636.308594 355.800781 650.050781 356.550781 654.796875 356.550781 C 669.664062 356.550781 669.289062 356.175781 668.289062 370.167969 C 667.789062 376.789062 667.164062 383.160156 666.914062 384.410156 C 665.664062 391.28125 666.664062 435.378906 669.039062 479.351562 C 669.664062 492.222656 669.914062 507.585938 669.414062 513.332031 C 668.664062 523.453125 668.664062 523.953125 671.164062 523.953125 C 672.660156 523.953125 674.035156 522.828125 674.535156 521.328125 C 675.785156 517.582031 675.535156 501.089844 673.910156 478.980469 C 672.410156 458.242188 671.910156 379.160156 673.160156 374.039062 C 673.535156 372.289062 674.035156 367.417969 674.035156 363.171875 C 674.160156 358.796875 674.660156 355.675781 675.285156 356.050781 C 675.910156 356.425781 676.410156 355.300781 676.410156 353.550781 C 676.839844 352.300781 679.296875 347.300781 679.65625 346.929688 C 680.65625 345.929688 681.15625 344.554688 680.78125 343.933594 C 680.28125 343.308594 680.78125 342.808594 681.78125 342.808594 C 684.636719 339.414062 687.34375 334.847656 690.902344 328.066406 C 692.898438 324.441406 695.148438 321.320312 695.773438 321.320312 C 697.523438 321.195312 701.394531 311.449219 701.394531 311.449219 C 703.550781 308.921875 704.597656 305.695312 706.515625 302.582031 C 705.558594 305.488281 716.722656 289.378906 715.136719 289.089844 C 717.03125 284.019531 726.734375 272.277344 732.625 256.980469 C 736.582031 251.671875 733 257.730469 734.125 252.984375 C 734.375 251.984375 735.5 251.109375 736.5 250.984375 C 737.875 250.734375 738.125 251.984375 737.875 256.730469 C 737.625 260.105469 736.875 262.480469 736.25 262.105469 C 735.625 261.730469 735.125 262.730469 735.125 264.351562 C 737.488281 270.5 736.929688 280.265625 736.875 286.839844 C 737.457031 318.875 738.535156 321.703125 738.75 348.304688 C 738.875 357.796875 739.121094 365.917969 739.371094 366.417969 C 739.621094 366.792969 740.246094 380.660156 740.746094 397.152344 C 741.121094 413.640625 741.746094 427.382812 741.996094 427.757812 C 742.246094 428.132812 742.746094 439.625 743.246094 453.367188 C 743.996094 477.730469 744.496094 480.101562 748.242188 480.226562 C 749.867188 480.226562 749.367188 454.617188 746.992188 419.636719 C 744.121094 377.039062 742.621094 332.6875 742.621094 278.96875 C 742.496094 251.859375 742.121094 229.121094 741.621094 228.375 C 741.121094 227.5 737.125 226.625 732.625 226.125 C 708.890625 223.875 708.265625 223.625 708.515625 220.878906 C 708.765625 218.878906 708.640625 218.878906 707.515625 221.128906 C 705.765625 224.5 701.019531 224.625 698.148438 221.503906 C 696.148438 219.253906 691.402344 218.128906 691.402344 219.878906 C 691.402344 220.378906 692.398438 221.503906 693.648438 222.375 C 695.648438 224 695.648438 224 693.648438 224.125 C 692.398438 224.125 691.402344 223.5 691.402344 222.875 C 691.402344 221.253906 686.777344 221.253906 685.777344 222.875 C 684.902344 224.25 667.539062 224.375 665.414062 223 C 664.789062 222.625 658.667969 221.003906 658.292969 216.003906 C 657.171875 200.765625 657.171875 200.765625 656.421875 186.273438 C 656.421875 185.273438 656.046875 185.273438 655.296875 186.398438 C 654.546875 187.648438 652.921875 187.898438 648.800781 187.023438 L 643.304688 185.898438 L 643.179688 179.777344 C 642.679688 158.164062 635.808594 146.796875 617.691406 138.050781 C 611.195312 134.925781 592.332031 133.554688 581.589844 135.550781 Z M 608.949219 140.925781 C 654.238281 180.179688 636.183594 185.730469 590.832031 184.023438 C 567.472656 183.273438 546.609375 182.273438 544.484375 181.773438 L 540.613281 181.027344 L 542.613281 174.78125 C 544.984375 167.285156 548.859375 160.914062 553.605469 156.664062 C 560.601562 150.292969 567.597656 145.296875 572.34375 143.421875 C 582.214844 139.175781 599.703125 138.050781 608.949219 140.925781 Z M 592.082031 189.144531 C 619.066406 190.269531 636.058594 191.394531 641.429688 192.394531 C 642.429688 192.519531 645.425781 192.769531 648.050781 192.769531 C 651.546875 192.894531 652.546875 193.269531 651.921875 194.394531 C 651.296875 195.515625 651.671875 195.515625 653.046875 194.269531 C 654.171875 193.394531 655.171875 193.144531 655.171875 193.769531 C 655.171875 194.394531 653.046875 196.765625 650.300781 198.890625 C 646.550781 201.890625 645.175781 202.386719 643.804688 201.265625 C 642.429688 200.015625 642.429688 200.140625 643.804688 201.890625 C 645.300781 204.011719 644.800781 204.761719 642.304688 204.261719 C 641.679688 204.136719 641.554688 204.636719 641.929688 205.261719 C 642.679688 206.386719 636.433594 211.132812 634.808594 210.632812 C 634.183594 210.507812 634.058594 210.882812 634.433594 211.507812 C 635.183594 212.632812 628.9375 217.378906 627.3125 216.878906 C 626.6875 216.753906 626.5625 217.128906 626.9375 217.753906 C 627.8125 219.128906 619.566406 225.625 618.316406 224.375 C 617.941406 223.875 617.691406 224.125 617.941406 225 C 618.191406 225.75 614.570312 229.121094 610.074219 232.496094 C 605.449219 235.746094 598.203125 241.242188 593.957031 244.613281 C 587.710938 249.484375 585.710938 250.484375 584.085938 249.484375 C 582.964844 248.738281 577.761719 249.601562 577.761719 248.480469 C 576.355469 247.355469 571.121094 243.515625 574.671875 241.800781 C 574.554688 243.425781 546.734375 204.261719 548.484375 201.390625 C 548.984375 200.640625 548.859375 200.390625 548.109375 200.765625 C 547.359375 201.265625 545.484375 199.765625 543.859375 197.640625 C 542.238281 195.515625 539.488281 192.019531 537.863281 190.019531 L 534.742188 186.398438 L 548.484375 187.148438 C 555.980469 187.523438 575.59375 188.519531 592.082031 189.144531 Z M 543.734375 204.386719 C 549.109375 212.132812 556.726562 223 560.601562 228.5 C 564.347656 233.996094 570.34375 241.617188 573.71875 245.238281 C 577.214844 248.988281 579.714844 252.609375 579.339844 253.359375 C 578.839844 253.984375 579.214844 254.109375 580.089844 253.609375 C 580.964844 252.984375 582.714844 253.609375 584.085938 254.859375 C 586.335938 256.980469 586.585938 256.855469 589.335938 254.609375 C 590.832031 253.234375 593.332031 251.234375 594.707031 250.234375 C 600.453125 246.363281 626.0625 226.625 629.0625 223.625 C 630.933594 221.878906 632.808594 220.878906 633.183594 221.253906 C 633.558594 221.753906 633.933594 221.503906 633.933594 220.753906 C 633.933594 220.128906 637.433594 216.628906 641.804688 213.132812 C 646.050781 209.632812 651.171875 205.386719 653.171875 203.511719 C 655.171875 201.765625 657.046875 200.515625 657.171875 200.765625 C 657.421875 200.890625 657.917969 207.886719 658.292969 216.003906 C 659.042969 231.496094 659.167969 233.621094 661.417969 248.488281 C 663.667969 264.101562 666.539062 294.460938 666.289062 300.332031 L 666.039062 305.953125 L 656.546875 305.078125 C 651.296875 304.703125 640.304688 304.203125 632.058594 304.203125 C 617.816406 304.078125 558.976562 300.582031 527.746094 297.957031 C 515.503906 296.832031 479.773438 290.335938 478.273438 288.839844 C 478.023438 288.589844 478.898438 286.339844 480.148438 283.964844 C 484.644531 275.722656 497.386719 253.359375 504.632812 240.992188 C 508.632812 234.121094 514.003906 224.875 516.5 220.378906 C 519 215.878906 523.121094 209.382812 525.621094 205.761719 C 527.996094 202.136719 530.617188 197.265625 531.492188 194.769531 C 532.242188 192.394531 533.117188 190.394531 533.367188 190.394531 C 533.492188 190.394531 538.238281 196.765625 543.734375 204.386719 Z M 502.136719 214.132812 C 506.257812 214.132812 510.378906 214.632812 511.378906 215.257812 C 513.253906 216.503906 513.128906 216.753906 497.761719 242.863281 C 485.394531 263.976562 472.777344 286.964844 472.777344 288.589844 C 472.777344 291.460938 476.273438 293.835938 482.769531 295.085938 C 486.519531 295.835938 495.015625 297.582031 501.511719 299.082031 C 508.007812 300.457031 520.125 302.207031 528.371094 302.832031 C 536.613281 303.453125 550.105469 304.578125 558.351562 305.328125 C 590.582031 307.953125 608.074219 309.078125 631.433594 309.703125 C 644.800781 310.078125 657.917969 310.699219 660.542969 311.074219 C 663.667969 311.449219 666.289062 310.949219 668.414062 309.453125 L 671.660156 307.328125 L 671.039062 288.589844 C 670.664062 278.21875 669.414062 264.851562 668.414062 258.980469 C 667.289062 253.109375 666.164062 243.988281 665.664062 238.742188 L 664.914062 229.246094 L 675.410156 229.746094 C 688.402344 230.371094 694.898438 231.121094 698.894531 232.246094 C 701.394531 232.871094 701.644531 232.871094 700.144531 231.621094 C 698.644531 230.496094 699.894531 230.371094 705.765625 230.996094 C 712.066406 233.171875 722.5 229.207031 727.628906 232.746094 C 727.628906 233.496094 729.128906 233.746094 731.128906 233.371094 C 735.5 232.496094 738.25 236.117188 735.75 239.617188 C 734.625 240.992188 731.121094 247.933594 730.496094 247.058594 C 725.699219 253.25 720.503906 266.289062 715.863281 274.847656 C 715.238281 274.472656 707.265625 285.714844 706.765625 287.839844 C 701.660156 292.777344 702.660156 299.09375 698.273438 302.832031 C 694.390625 309.078125 698.179688 306.632812 691.152344 314.074219 C 690.527344 314.074219 690.277344 314.574219 690.652344 315.074219 C 683.695312 327.757812 681.46875 333.566406 677.535156 337.1875 C 677.214844 339.832031 674.148438 341.601562 672.160156 345.679688 C 672.410156 346.554688 671.910156 348.304688 670.914062 349.679688 C 669.414062 351.800781 667.789062 352.050781 656.921875 351.675781 C 650.050781 351.550781 639.804688 350.925781 633.933594 350.304688 C 620.941406 348.804688 560.601562 345.929688 507.757812 344.054688 C 486.144531 343.308594 460.035156 342.183594 449.664062 341.433594 C 439.421875 340.808594 421.929688 340.308594 410.9375 340.433594 C 399.945312 340.433594 389.699219 340.058594 388.324219 339.433594 C 385.703125 338.433594 385.828125 338.058594 392.699219 327.566406 C 420.808594 284.089844 438.171875 258.355469 451.039062 240.992188 C 455.035156 235.496094 461.285156 226.875 464.65625 221.753906 L 470.902344 212.507812 L 482.769531 213.382812 C 489.265625 213.757812 498.011719 214.132812 502.136719 214.132812 Z M 502.136719 214.132812 "/>
<path style=" stroke:none;fill-rule:nonzero;fill:rgb(0%,0%,0%);fill-opacity:1;" d="M 699.644531 250.234375 C 699.144531 251.109375 699.019531 252.109375 699.394531 252.484375 C 700.519531 253.609375 701.769531 251.984375 701.144531 250.234375 C 700.644531 248.863281 700.394531 248.863281 699.644531 250.234375 Z M 699.644531 250.234375 "/>
<path style=" stroke:none;fill-rule:nonzero;fill:rgb(0%,0%,0%);fill-opacity:1;" d="M 1.800781 499.464844 C 1.800781 500.589844 2.421875 501.464844 3.046875 501.464844 C 3.796875 501.464844 4.296875 500.964844 4.296875 500.339844 C 4.296875 499.589844 3.796875 498.71875 3.046875 498.34375 C 2.421875 497.96875 1.800781 498.46875 1.800781 499.464844 Z M 1.800781 499.464844 "/>
<path style=" stroke:none;fill-rule:nonzero;fill:rgb(0%,0%,0%);fill-opacity:1;" d="M 577.761719 308.527344 C 573.886719 303.019531 569.515625 293.710938 567.324219 286.304688 C 564.847656 277.933594 564.832031 260.359375 567.289062 248.4375 L 569.382812 238.28125 L 574.023438 236.621094 C 576.578125 235.707031 580.125 234.828125 581.902344 234.671875 C 583.679688 234.515625 585.785156 233.695312 586.582031 232.855469 C 587.375 232.011719 588.136719 231.652344 588.269531 232.054688 C 588.609375 233.078125 591.875 231.582031 592.394531 230.167969 C 592.632812 229.523438 593.265625 229.347656 593.800781 229.777344 C 594.339844 230.207031 596.027344 230.246094 597.554688 229.863281 L 600.332031 229.171875 L 597.285156 226.539062 C 595.609375 225.089844 593.457031 223.050781 592.496094 222.003906 C 587.441406 216.496094 582.117188 194.105469 582.148438 178.492188 C 582.160156 173.132812 581.871094 168.5 581.511719 168.199219 C 581.148438 167.894531 581.667969 166.679688 582.660156 165.492188 C 583.6875 164.265625 584.089844 163 583.59375 162.554688 C 581.542969 160.710938 587.832031 125.8125 592.574219 112.710938 C 595.257812 105.292969 599.988281 98.125 601.410156 99.316406 C 601.804688 99.648438 602.546875 99.417969 603.058594 98.808594 C 604.722656 96.824219 608.800781 97.046875 614.667969 99.445312 C 621.511719 102.238281 625.023438 105.046875 630.09375 111.765625 C 634.652344 117.804688 638.074219 123.953125 642.535156 134.121094 C 647.652344 145.78125 649.289062 151.828125 652.226562 169.957031 C 655.800781 192.023438 656.003906 199.050781 653.507812 214.589844 C 653.210938 216.453125 653.703125 216.582031 660.015625 216.308594 C 663.769531 216.144531 669.128906 215.578125 671.921875 215.050781 C 677.457031 214.003906 706.175781 212.265625 710.207031 212.730469 C 712.5625 213.003906 712.769531 213.429688 713.875 220.28125 C 715.394531 229.726562 714.425781 245.398438 711.574219 257.378906 C 704.066406 288.933594 688.613281 310.171875 662.285156 325.109375 C 656.328125 328.488281 649.121094 331.984375 646.269531 332.882812 C 635.882812 336.140625 619.828125 334.421875 603.566406 328.308594 C 596.382812 325.605469 594.457031 324.453125 588.09375 319.054688 C 584.097656 315.664062 579.449219 310.929688 577.761719 308.527344 Z M 597.355469 319 C 604.46875 322.777344 616.996094 326.535156 626.171875 327.636719 C 633.414062 328.507812 645.019531 327.464844 649.648438 325.527344 C 653.984375 323.714844 671.132812 311.800781 677.511719 306.171875 C 686.007812 298.679688 695.125 286.304688 699.460938 276.386719 C 704.601562 264.621094 709.496094 243.519531 709.652344 232.441406 C 709.871094 217.039062 710.882812 217.898438 693.90625 219.035156 C 671.871094 220.511719 643.578125 224.285156 627.625 227.878906 C 624.929688 228.488281 615.582031 230.976562 606.847656 233.40625 C 598.113281 235.839844 586.992188 238.835938 582.132812 240.0625 L 573.300781 242.292969 L 571.664062 250.238281 C 567.105469 272.402344 571.828125 294.632812 584 308.300781 C 589.222656 314.164062 591.132812 315.695312 597.355469 319 Z M 618.316406 224.375 C 625.175781 222.554688 634.359375 220.613281 638.734375 220.058594 L 646.683594 219.050781 L 648.242188 211.851562 C 650.316406 202.265625 650.085938 189.621094 647.535156 173.28125 C 644.5625 154.226562 643.238281 148.550781 639.585938 139.261719 C 628.28125 110.515625 614.480469 98.015625 603.242188 106.351562 C 599.246094 109.316406 596.007812 117.296875 593.113281 131.332031 C 590.664062 143.1875 587.902344 167.4375 588.902344 168.273438 C 589.285156 168.597656 589.058594 170.929688 588.390625 173.453125 C 586.226562 181.664062 589.421875 203.839844 594.371094 214.988281 C 595.945312 218.535156 597.691406 220.773438 601.171875 223.722656 L 605.851562 227.683594 Z M 618.316406 224.375 "/>
<path style=" stroke:none;fill-rule:nonzero;fill:rgb(97.647059%,97.647059%,97.647059%);fill-opacity:1;" d="M 621.707031 200.640625 C 610.691406 202.285156 598.570312 182.25 594.636719 155.894531 C 590.703125 129.539062 596.445312 106.839844 607.464844 105.195312 C 618.480469 103.554688 630.601562 123.585938 634.535156 149.941406 C 638.46875 176.296875 632.726562 198.996094 621.707031 200.640625 Z M 621.707031 200.640625 "/>
<path style=" stroke:none;fill-rule:nonzero;fill:rgb(97.647059%,97.647059%,97.647059%);fill-opacity:1;" d="M 616.511719 166.765625 C 615.800781 166.871094 614.742188 163.703125 614.144531 159.691406 C 613.542969 155.679688 613.632812 152.339844 614.339844 152.234375 C 615.050781 152.128906 616.109375 155.296875 616.707031 159.308594 C 617.304688 163.320312 617.21875 166.660156 616.511719 166.765625 Z M 616.511719 166.765625 "/>
<path style=" stroke:none;fill-rule:nonzero;fill:rgb(97.647059%,97.647059%,97.647059%);fill-opacity:1;" d="M 620.40625 227.050781 C 607.027344 229.046875 593.082031 209.875 589.253906 184.226562 C 585.425781 158.578125 593.167969 136.167969 606.546875 134.171875 C 619.921875 132.175781 633.871094 151.347656 637.699219 176.996094 C 641.527344 202.644531 633.785156 225.054688 620.40625 227.050781 Z M 620.40625 227.050781 "/>
<path style=" stroke:none;fill-rule:nonzero;fill:rgb(97.647059%,97.647059%,97.647059%);fill-opacity:1;" d="M 570.261719 270.644531 C 564.550781 260.515625 579.550781 244.035156 603.765625 233.832031 C 627.980469 223.632812 652.238281 223.574219 657.953125 233.707031 C 663.664062 243.835938 648.664062 260.316406 624.449219 270.519531 C 600.234375 280.71875 575.972656 280.777344 570.261719 270.644531 Z M 570.261719 270.644531 "/>
<path style=" stroke:none;fill-rule:nonzero;fill:rgb(97.647059%,97.647059%,97.647059%);fill-opacity:1;" d="M 602.886719 265.800781 L 606.972656 293.15625 L 573.632812 298.132812 L 569.550781 270.777344 Z M 602.886719 265.800781 "/>
<path style=" stroke:none;fill-rule:nonzero;fill:rgb(97.647059%,97.647059%,97.647059%);fill-opacity:1;" d="M 591.03125 306.546875 C 583.703125 307.640625 577.058594 303.820312 576.191406 298.011719 C 575.324219 292.203125 580.5625 286.609375 587.894531 285.515625 C 595.222656 284.421875 601.867188 288.242188 602.734375 294.050781 C 603.601562 299.859375 598.363281 305.453125 591.03125 306.546875 Z M 591.03125 306.546875 "/>
<path style=" stroke:none;fill-rule:nonzero;fill:rgb(97.647059%,97.647059%,97.647059%);fill-opacity:1;" d="M 684.902344 294.746094 C 684.902344 310.65625 666.710938 323.585938 644.171875 323.691406 C 621.632812 323.800781 603.195312 311.046875 602.890625 295.136719 C 602.585938 279.230469 620.53125 266.128906 643.066406 265.804688 C 665.601562 265.484375 684.28125 278.058594 684.890625 293.964844 L 643.894531 294.746094 Z M 684.902344 294.746094 "/>
<path style=" stroke:none;fill-rule:nonzero;fill:rgb(97.647059%,97.647059%,97.647059%);fill-opacity:1;" d="M 590.867188 250.6875 L 677.507812 227.171875 L 699.644531 250.234375 L 613.003906 273.75 Z M 590.867188 250.6875 "/>
<path style=" stroke:none;fill-rule:nonzero;fill:rgb(97.647059%,97.647059%,97.647059%);fill-opacity:1;" d="M 646.683594 179.988281 C 646.683594 201.457031 638.3125 218.90625 627.941406 219.050781 C 617.574219 219.195312 609.089844 201.984375 608.949219 180.515625 C 608.808594 159.046875 617.066406 141.367188 627.433594 140.933594 C 637.800781 140.496094 646.394531 157.46875 646.675781 178.933594 L 627.816406 179.988281 Z M 646.683594 179.988281 "/>
<path style=" stroke:none;fill-rule:nonzero;fill:rgb(97.647059%,97.647059%,97.647059%);fill-opacity:1;" d="M 649.015625 177.910156 L 650.617188 219.164062 L 629.953125 219.429688 L 628.351562 178.175781 Z M 649.015625 177.910156 "/>
<path style=" stroke:none;fill-rule:nonzero;fill:rgb(97.647059%,97.647059%,97.647059%);fill-opacity:1;" d="M 650.003906 222.339844 L 708.605469 216.746094 L 710.222656 233.683594 L 651.621094 239.277344 Z M 650.003906 222.339844 "/>
<path style=" stroke:none;fill-rule:nonzero;fill:rgb(100%,100%,100%);fill-opacity:1;" d="M 586.507812 284.457031 L 670.746094 284.457031 L 670.746094 311.222656 L 586.507812 311.222656 Z M 586.507812 284.457031 "/>
<path style=" stroke:none;fill-rule:nonzero;fill:rgb(97.647059%,97.647059%,97.647059%);fill-opacity:1;" d="M 635.320312 239.1875 L 702.628906 239.1875 L 702.628906 273.828125 L 635.320312 273.828125 Z M 635.320312 239.1875 "/>
<path style=" stroke:none;fill-rule:nonzero;fill:rgb(97.647059%,97.647059%,97.647059%);fill-opacity:1;" d="M 639.710938 158.746094 L 648.578125 190.8125 L 631.96875 194.441406 L 623.097656 162.375 Z M 639.710938 158.746094 "/>
<path style=" stroke:none;fill-rule:nonzero;fill:rgb(100%,100%,100%);fill-opacity:1;" d="M 573.300781 242.292969 L 701.230469 242.292969 L 701.230469 269.058594 L 573.300781 269.058594 Z M 573.300781 242.292969 "/>
<path style=" stroke:none;fill-rule:nonzero;fill:rgb(100%,100%,100%);fill-opacity:1;" d="M 582.882812 258.871094 L 678.535156 258.871094 L 678.535156 308.074219 L 582.882812 308.074219 Z M 582.882812 258.871094 "/>
<path style=" stroke:none;fill-rule:nonzero;fill:rgb(100%,100%,100%);fill-opacity:1;" d="M 595.742188 133.378906 L 624.867188 138.589844 L 620.554688 203.390625 L 591.429688 198.179688 Z M 595.742188 133.378906 "/>
<path style=" stroke:none;fill-rule:nonzero;fill:rgb(100%,100%,100%);fill-opacity:1;" d="M 609.625 180.503906 L 638.867188 183.320312 L 636.132812 223.914062 L 606.890625 221.097656 Z M 609.625 180.503906 "/>
<path style=" stroke:none;fill-rule:nonzero;fill:rgb(100%,100%,100%);fill-opacity:1;" d="M 602.195312 113.195312 L 623.515625 114.554688 L 621.523438 134.167969 L 600.199219 132.804688 Z M 602.195312 113.195312 "/>
<path style=" stroke:none;fill-rule:nonzero;fill:rgb(0%,0%,0%);fill-opacity:1;" d="M 242.117188 302.871094 C 242.269531 302.765625 244.203125 302.792969 246.457031 302.953125 C 256.421875 303.558594 260.535156 303.578125 267.699219 303.113281 C 273.324219 302.742188 287.609375 300.859375 291.753906 299.964844 C 299.417969 298.304688 307.011719 295.839844 313.179688 292.996094 C 314.773438 292.28125 317.824219 290.90625 319.960938 289.945312 C 329.039062 285.910156 341.035156 276.359375 347.710938 267.808594 C 348.695312 266.539062 348.945312 265.875 348.804688 265.035156 L 348.636719 263.90625 L 349.644531 264.136719 C 350.175781 264.257812 350.695312 264.425781 350.757812 264.515625 C 350.96875 264.816406 353.769531 265.441406 358.011719 266.21875 C 367.707031 267.902344 376.179688 267.144531 385.75 263.746094 C 388.796875 262.683594 389.785156 262.125 393.4375 259.570312 C 398.261719 256.144531 402.292969 252.925781 403.707031 251.3125 C 404.261719 250.703125 405.234375 249.800781 405.890625 249.339844 C 406.550781 248.878906 407.9375 247.417969 408.960938 246.078125 C 409.984375 244.738281 411.039062 243.507812 411.277344 243.339844 C 411.90625 242.898438 416.546875 235.640625 417.074219 234.292969 C 417.28125 233.699219 417.625 233.105469 417.804688 232.976562 C 417.984375 232.851562 418.050781 232.628906 417.945312 232.480469 C 417.839844 232.328125 417.960938 231.929688 418.175781 231.601562 C 418.445312 231.28125 418.796875 230.320312 419.011719 229.414062 C 419.214844 228.558594 419.550781 227.386719 419.804688 226.851562 C 420.035156 226.292969 420.269531 224.207031 420.335938 222.199219 C 420.507812 217.222656 420.675781 214.785156 420.84375 214.132812 C 420.925781 213.808594 421.003906 212.773438 421.023438 211.777344 C 421.042969 210.785156 421.097656 209.71875 421.203125 209.421875 C 421.257812 209.117188 421.230469 207.933594 421.144531 206.789062 C 421.007812 205.636719 420.980469 204.453125 421.054688 204.179688 C 421.253906 203.191406 420.492188 197.261719 419.753906 194.167969 C 419.519531 193.128906 419.421875 192.480469 419.230469 191.1875 C 419.132812 190.410156 418.726562 188.242188 418.585938 187.847656 C 418.550781 187.738281 418.457031 187.40625 418.410156 187.082031 C 416.675781 179.828125 411.566406 168.644531 407.117188 162.21875 C 404.394531 158.328125 399.867188 152.625 399.222656 152.273438 C 398.882812 152.109375 398.15625 151.324219 397.589844 150.519531 C 397.046875 149.738281 396.058594 148.648438 395.417969 148.113281 C 394.777344 147.582031 393.917969 146.800781 393.535156 146.3125 C 391.433594 143.949219 390.636719 143.125 388.402344 141.210938 C 386.355469 139.433594 382.367188 136.472656 379.949219 134.867188 C 379.601562 134.621094 378.386719 133.777344 377.242188 132.972656 C 376.128906 132.144531 374.703125 131.316406 374.089844 131.078125 C 373.496094 130.867188 372.921875 130.554688 372.816406 130.40625 C 372.714844 130.257812 371.421875 129.6875 369.980469 129.09375 C 368.507812 128.519531 366.910156 127.761719 366.398438 127.410156 C 365.910156 127.035156 364.972656 126.714844 364.292969 126.699219 C 363.167969 126.683594 362.96875 126.777344 362.203125 127.851562 C 360.324219 130.457031 357.503906 135.28125 355.839844 138.632812 C 353.152344 144.035156 351.996094 146.136719 351.597656 146.460938 C 350.757812 147.046875 347.457031 153.414062 346.410156 156.375 C 345.25 159.683594 345.035156 160.144531 341.183594 166.808594 L 338.835938 170.90625 L 335.664062 167.773438 C 333.945312 166.082031 331.554688 164.007812 330.363281 163.191406 C 329.167969 162.378906 327.4375 161.179688 326.53125 160.523438 C 325.597656 159.886719 323.574219 158.714844 321.984375 157.910156 C 320.417969 157.136719 318.089844 155.910156 316.828125 155.191406 C 315.535156 154.488281 312.75 153.183594 310.601562 152.28125 C 308.480469 151.355469 306.660156 150.535156 306.597656 150.445312 C 306.511719 150.324219 306.023438 150.132812 305.492188 150.015625 C 304.207031 149.710938 293.378906 144.9375 293.109375 144.550781 C 293.003906 144.398438 292.800781 144.363281 292.679688 144.449219 C 292.5625 144.53125 291.398438 144.273438 290.164062 143.84375 C 288.917969 143.46875 287.777344 143.109375 287.625 143.082031 C 287.472656 143.054688 286.347656 142.726562 285.125 142.378906 C 279.75 140.746094 265.488281 138.777344 258.65625 138.699219 C 255.039062 138.691406 247.792969 139.484375 246.464844 140.007812 C 245.875 140.246094 244.304688 140.808594 242.96875 141.253906 C 240.542969 142.058594 236.882812 144.53125 236.0625 145.910156 C 233.964844 146.304688 232.347656 148.820312 232.347656 148.820312 C 233.289062 150.167969 233.238281 150.605469 232.058594 150.449219 C 230.75 150.296875 229.242188 151.261719 229.296875 152.292969 C 229.328125 152.851562 229.003906 153.34375 228.285156 153.847656 C 227.390625 154.476562 227.089844 155.128906 226.515625 157.941406 L 227.589844 164.40625 L 224.15625 168.328125 M 245.976562 144.410156 C 247.765625 143.78125 250.175781 143.210938 251.320312 143.121094 C 252.492188 143.015625 253.855469 142.863281 254.421875 142.777344 C 256.257812 142.472656 259.320312 142.515625 263.382812 142.839844 C 268.375 143.222656 282.585938 145.761719 285.042969 146.71875 C 286.023438 147.101562 286.992188 147.402344 287.144531 147.429688 C 287.296875 147.457031 288.339844 147.796875 289.464844 148.257812 C 290.597656 148.667969 291.730469 149.078125 291.976562 149.175781 C 292.628906 149.34375 296.292969 150.882812 302.648438 153.65625 C 309.851562 156.816406 310.382812 157.070312 313.984375 158.964844 C 315.6875 159.867188 317.417969 160.75 317.859375 160.933594 C 319.191406 161.5625 324.457031 164.695312 325.726562 165.679688 C 326.398438 166.191406 327.261719 166.789062 327.613281 167.035156 C 327.992188 167.261719 328.589844 167.734375 328.945312 168.109375 C 329.328125 168.464844 330.050781 169.117188 330.585938 169.5 C 331.113281 169.933594 331.515625 170.320312 331.457031 170.363281 C 331.367188 170.425781 331.707031 170.722656 332.152344 171.035156 C 332.625 171.328125 333.382812 172.09375 333.871094 172.730469 C 334.339844 173.339844 334.835938 173.792969 334.988281 173.6875 C 335.105469 173.605469 335.730469 174.238281 336.359375 175.136719 L 337.46875 176.722656 L 335.890625 180.011719 C 335.019531 181.824219 334.15625 183.585938 334.011719 183.953125 C 333.847656 184.292969 333.433594 185.164062 333.125 185.867188 C 332.378906 187.414062 328.367188 199.140625 327.015625 203.832031 C 325.285156 209.765625 325.121094 210.105469 323.660156 210.503906 C 322.964844 210.722656 321.835938 211.019531 321.132812 211.15625 C 320.476562 211.304688 319.78125 211.523438 319.570312 211.667969 C 319.363281 211.816406 318.707031 211.960938 318.121094 212.015625 C 317.503906 212.089844 316.554688 212.265625 315.980469 212.398438 C 314.933594 212.6875 314.257812 212.355469 314.964844 211.90625 C 316.273438 211.03125 316.308594 210.832031 315.410156 209.542969 C 314.929688 208.855469 314.003906 207.851562 313.363281 207.320312 C 312.722656 206.789062 311.261719 205.402344 310.101562 204.253906 C 308.910156 203.125 307.523438 201.777344 306.976562 201.3125 C 306.429688 200.851562 305.027344 199.421875 303.835938 198.164062 C 302.640625 196.902344 300.265625 194.464844 298.515625 192.792969 C 296.792969 191.097656 295.296875 189.46875 295.242188 189.195312 C 295.066406 188.5625 293.066406 187.554688 292.078125 187.667969 C 291.621094 187.71875 289.582031 188.566406 287.5 189.535156 C 285.414062 190.503906 283.136719 191.515625 282.441406 191.734375 C 281.746094 191.953125 280.8125 192.339844 280.351562 192.574219 C 279.871094 192.777344 279.46875 192.96875 279.4375 192.988281 C 279.394531 192.980469 279.195312 192.445312 278.964844 191.804688 C 277.957031 188.765625 274.625 183.117188 269.859375 176.242188 C 267.097656 172.292969 264.453125 168.703125 264.027344 168.289062 C 263.609375 167.820312 262.625 166.730469 261.84375 165.804688 C 256.585938 159.628906 251.863281 156.070312 245.96875 153.820312 C 244.566406 153.285156 248.394531 156.371094 244.230469 155.234375 C 243.597656 155.058594 240.597656 151.691406 239.796875 151.628906 C 238.964844 151.589844 238.160156 151.394531 238.035156 151.214844 C 237.679688 150.707031 239.917969 147.535156 241.414062 146.488281 C 242.144531 145.9375 244.21875 145.015625 245.976562 144.40625 Z M 240.8125 155.246094 C 241.53125 155.632812 243.878906 156.890625 246.042969 158.003906 C 248.152344 159.113281 250.238281 160.371094 250.664062 160.789062 C 251.070312 161.175781 252.132812 162.125 253.03125 162.832031 C 258.75 167.433594 273.476562 188.289062 274.761719 193.632812 C 274.925781 194.1875 274.886719 194.703125 274.703125 194.699219 C 274.332031 194.734375 272.324219 193.332031 269.917969 191.359375 C 268.925781 190.582031 267.523438 189.46875 266.761719 188.886719 C 265.667969 188.09375 259.160156 182.617188 256.289062 180.167969 C 255.792969 179.710938 251.589844 175.746094 248.535156 172.84375 C 245.613281 170.074219 242.125 165.917969 239.351562 162.015625 C 237.175781 158.90625 237.140625 158.796875 237.800781 158.332031 C 238.609375 157.769531 238.769531 157.296875 238.695312 155.789062 C 238.652344 154.394531 238.988281 154.292969 240.8125 155.246094 Z M 224.15625 168.328125 C 224.992188 167.742188 225.714844 167.371094 225.777344 167.460938 C 225.839844 167.550781 225.914062 168.167969 225.910156 168.796875 C 225.96875 171.875 227.503906 178.335938 229.328125 183.429688 C 234.699219 198.175781 235.746094 200.5625 238.851562 205.699219 L 240.847656 208.9375 L 238.6875 210.183594 C 237.519531 210.867188 231.921875 213.613281 230.066406 214.152344 L 230.679688 218.28125 M 235.347656 164.507812 C 238.15625 168.652344 243.597656 174.960938 247.71875 178.8125 C 251.808594 182.679688 258.816406 188.875 261.40625 190.851562 C 262.488281 191.699219 263.582031 192.628906 263.882812 192.863281 C 264.171875 193.152344 265.070312 193.859375 265.855469 194.472656 C 266.6875 195.089844 267.496094 195.863281 267.644531 196.203125 C 267.910156 196.777344 267.875 196.847656 266.59375 197.121094 C 265.855469 197.277344 265 197.519531 264.742188 197.65625 C 260.503906 199.820312 256.800781 201.476562 254.910156 202.085938 C 253.582031 202.480469 251.175781 203.628906 249.558594 204.628906 C 247.9375 205.625 246.175781 206.546875 245.679688 206.671875 C 244.824219 206.914062 244.785156 206.851562 243.027344 204.027344 C 241.324219 201.207031 238.65625 195.359375 236.863281 190.375 C 232.183594 177.507812 231.964844 176.816406 231.019531 171.769531 C 230.640625 169.628906 230.378906 163.972656 230.617188 163.226562 C 230.683594 163.003906 231.296875 162.480469 231.976562 162.050781 L 233.207031 161.324219 Z M 242.101562 213.277344 C 243.492188 212.527344 245.207031 211.726562 245.882812 211.480469 C 246.554688 211.230469 248.859375 210.066406 250.960938 208.863281 C 253.058594 207.660156 256.089844 206.253906 257.675781 205.722656 C 259.316406 205.199219 262.15625 203.96875 264.050781 203.042969 C 265.953125 202.070312 267.941406 201.214844 268.464844 201.070312 C 269.007812 200.957031 270.105469 200.546875 270.90625 200.164062 C 272.171875 199.546875 272.535156 199.558594 273.296875 200.140625 C 278.765625 204.382812 287.273438 209.21875 292.984375 211.328125 C 295.273438 212.179688 298.746094 213.445312 300.660156 214.203125 C 305.554688 216.039062 313.5625 217.480469 315.128906 216.785156 C 317.574219 215.695312 317.523438 215.6875 318.375 217.097656 C 319.101562 218.328125 319.105469 218.457031 318.246094 219.328125 C 317.414062 220.179688 316.125 221.972656 312.28125 227.691406 C 311.546875 228.742188 310.144531 230.4375 309.105469 231.433594 C 308.113281 232.4375 306.1875 234.589844 304.875 236.21875 C 302.292969 239.40625 299.191406 242.425781 292.679688 248.097656 C 290.414062 250.082031 288.269531 251.984375 287.953125 252.296875 C 287.300781 253.019531 285.683594 252.8125 283.988281 251.726562 C 283.351562 251.328125 280.007812 250.5 276.621094 249.929688 C 273.242188 249.304688 267.421875 248.25 263.738281 247.574219 C 260.035156 246.867188 256.453125 246.210938 255.710938 246.105469 C 253.789062 245.84375 247.285156 244.511719 244.125 243.691406 C 242.667969 243.328125 240.460938 242.914062 239.261719 242.726562 C 238.03125 242.5625 235.957031 242.273438 234.585938 242.03125 L 232.414062 247.785156 L 232.058594 240.144531 C 232.019531 239.324219 232.105469 238.550781 232.253906 238.445312 C 232.402344 238.34375 229.171875 215.015625 229.023438 214.808594 C 228.605469 214.207031 232.324219 222.304688 232.894531 218.339844 L 233.144531 216.46875 L 236.378906 215.542969 C 238.148438 215.019531 240.742188 214.007812 242.101562 213.277344 Z M 365.882812 131.960938 C 365.964844 132.082031 366.773438 132.410156 367.660156 132.589844 C 368.535156 132.824219 369.332031 133.070312 369.414062 133.191406 C 369.5 133.308594 370.414062 133.917969 371.460938 134.523438 C 372.507812 135.125 373.445312 135.765625 373.527344 135.882812 C 373.632812 136.035156 374.335938 136.523438 375.125 136.953125 C 375.863281 137.371094 378.25 139 380.363281 140.550781 C 384.011719 143.214844 384.890625 144.027344 389.105469 148.523438 C 393.101562 152.769531 393.964844 153.679688 395.015625 154.863281 C 395.628906 155.546875 396.394531 156.394531 396.738281 156.6875 C 399.488281 159.222656 405.59375 168.457031 407.429688 172.921875 C 407.804688 173.777344 408.558594 175.429688 409.164062 176.613281 C 410.476562 179.125 411.660156 182.222656 411.5625 182.78125 C 411.527344 182.984375 411.667969 183.375 411.878906 183.675781 C 412.085938 183.972656 412.472656 185.355469 412.695312 186.757812 C 412.972656 188.167969 413.222656 189.421875 413.265625 189.480469 C 413.664062 190.050781 415.457031 203.636719 415.316406 204.898438 C 415.242188 205.304688 415.292969 205.757812 415.378906 205.878906 C 415.441406 205.96875 415.503906 207.839844 415.460938 210.011719 C 415.414062 213.699219 415.488281 216.992188 415.679688 220.066406 C 415.78125 221.554688 414.0625 228.015625 413.464844 228.4375 C 413.257812 228.582031 413.160156 228.828125 413.265625 228.976562 C 413.472656 229.277344 413.386719 229.472656 411.679688 232.894531 C 409.773438 236.726562 404.875 242.917969 400.648438 246.945312 C 396.304688 251.054688 388.46875 257.25 388.15625 256.800781 C 388.050781 256.652344 387.726562 256.699219 387.460938 256.890625 C 386.980469 257.222656 387.023438 257.285156 387.601562 257.28125 C 388.148438 257.300781 388.167969 257.328125 387.585938 257.515625 C 387.171875 257.625 386.199219 258.082031 385.410156 258.546875 C 382.46875 260.203125 375.984375 262.023438 371.273438 262.554688 C 366.636719 263.125 364.941406 263.0625 358.570312 262.171875 C 355.753906 261.78125 348.441406 259.675781 347.09375 258.835938 C 346.804688 258.679688 345.554688 258.039062 344.265625 257.46875 C 339.003906 255.042969 331.261719 250.03125 329.078125 247.679688 C 328.769531 247.363281 328.332031 246.996094 328.140625 246.910156 C 327.363281 246.5625 324.925781 244.164062 323.488281 242.363281 C 322.671875 241.328125 321.769531 240.355469 321.492188 240.148438 C 320.875 239.777344 321.554688 236.671875 323.039062 232.871094 C 323.480469 231.714844 323.84375 230.703125 323.847656 230.519531 C 323.898438 230.085938 325.933594 224.070312 326.90625 221.515625 C 327.367188 220.257812 328.101562 217.871094 328.5 216.210938 C 328.878906 214.519531 329.375 212.746094 329.535156 212.273438 C 329.726562 211.785156 330.199219 210.292969 330.597656 208.949219 C 335.375 193.03125 336.25 190.589844 341.417969 179.753906 C 342.160156 178.207031 342.683594 176.59375 343.613281 172.957031 C 343.941406 171.703125 345.496094 168.828125 348.347656 164.113281 C 349.5 162.195312 350.585938 160.050781 350.753906 159.398438 C 351.421875 156.527344 353.820312 151.546875 355.652344 149.195312 C 356.332031 148.320312 359.027344 143.445312 360.664062 140.117188 C 361.277344 138.886719 361.972656 137.460938 362.265625 136.988281 C 362.539062 136.488281 363.261719 135.222656 363.863281 134.175781 C 364.984375 132.144531 365.566406 131.511719 365.882812 131.960938 Z M 282.480469 196.570312 C 283.242188 196.257812 285.628906 195.210938 287.765625 194.25 C 289.921875 193.320312 291.820312 192.527344 291.996094 192.585938 C 292.175781 192.589844 293.523438 193.878906 295.007812 195.425781 C 298.722656 199.332031 304.632812 205.226562 306.960938 207.34375 C 311.386719 211.378906 312.0625 212.023438 312.023438 212.226562 C 312.007812 212.328125 310.5 212.085938 308.660156 211.683594 C 301.011719 209.992188 287.480469 204.480469 283.726562 201.535156 C 283.3125 201.199219 282.375 200.5625 281.617188 200.113281 C 280.855469 199.664062 279.917969 199.027344 279.527344 198.722656 C 278.742188 198.113281 278.804688 198.070312 282.480469 196.570312 Z M 236.90625 245.222656 C 238.554688 245.539062 241.285156 246.125 242.996094 246.535156 C 250.777344 248.355469 253.199219 248.886719 254.53125 249.070312 C 255.355469 249.164062 257.207031 249.515625 258.644531 249.847656 C 260.109375 250.160156 262.550781 250.589844 264.054688 250.832031 C 265.539062 251.039062 266.945312 251.261719 267.167969 251.328125 C 267.34375 251.382812 270.558594 252.03125 274.261719 252.738281 C 277.96875 253.445312 282.15625 254.523438 283.597656 255.121094 C 288.457031 257.160156 288.992188 257.097656 291.488281 254.546875 C 292.140625 253.824219 294.453125 251.714844 296.570312 249.832031 C 302.691406 244.433594 307.351562 239.882812 308.695312 238.046875 C 309.386719 237.121094 310.601562 235.734375 311.414062 234.988281 C 313.378906 233.210938 314.789062 231.464844 317.816406 227.253906 C 320.597656 223.390625 320.710938 223.175781 321.0625 221.636719 C 321.210938 221.085938 321.546875 220.542969 321.816406 220.484375 C 322.148438 220.386719 322.171875 220.546875 321.878906 221.019531 C 321.632812 221.371094 321.394531 221.984375 321.3125 222.308594 C 321.214844 223 318.074219 233.226562 317.332031 235.351562 C 316.769531 237.035156 315.957031 240.902344 316.144531 241.171875 C 316.226562 241.292969 316.800781 241.605469 317.457031 241.902344 C 318.265625 242.230469 319.34375 243.257812 320.71875 244.96875 C 322.617188 247.296875 329.289062 253.460938 330.324219 253.851562 C 330.546875 253.917969 331.71875 254.703125 332.925781 255.597656 C 335.109375 257.191406 340.683594 260.378906 344.132812 261.929688 C 346.292969 262.914062 346.585938 263.203125 345.742188 263.527344 C 345.378906 263.644531 344.40625 264.550781 343.578125 265.53125 C 342.699219 266.503906 341.355469 268.023438 340.59375 268.910156 C 336.621094 273.429688 324.734375 282.683594 320.160156 284.816406 C 319.246094 285.230469 317.042969 286.285156 315.320312 287.132812 C 307 291.171875 298.371094 294.132812 290.140625 295.746094 C 284.058594 296.929688 271.429688 298.632812 266.390625 298.949219 C 263.394531 299.128906 257.195312 299.1875 252.683594 299.046875 C 248.140625 298.925781 243.597656 298.804688 242.65625 298.796875 C 239.617188 298.785156 239.523438 298.714844 238.878906 297.027344 C 236.546875 290.765625 232.714844 261.53125 232.414062 247.785156 C 232.351562 244.445312 232.402344 244.136719 233.117188 244.394531 C 233.566406 244.527344 235.257812 244.90625 236.90625 245.222656 Z M 323.582031 214.660156 C 323.789062 214.511719 323.816406 214.804688 323.683594 215.253906 C 323.390625 216.171875 322.839844 216.339844 322.355469 215.648438 C 322.148438 215.351562 322.265625 215.136719 322.648438 215.046875 C 322.980469 214.945312 323.402344 214.785156 323.582031 214.660156 Z M 323.582031 214.660156 "/>
<path style=" stroke:none;fill-rule:nonzero;fill:rgb(0%,0%,0%);fill-opacity:1;" d="M 253.300781 142.800781 C 251.792969 141.539062 251.03125 141.453125 248.707031 142.214844 C 247.191406 142.683594 245.179688 143.019531 244.332031 142.898438 C 243.453125 142.867188 241.226562 143.367188 239.414062 143.972656 C 237.5625 144.667969 235.007812 145.390625 233.734375 145.609375 C 232.464844 145.824219 229.152344 147.109375 226.367188 148.441406 C 221.457031 150.808594 221.363281 150.921875 220.363281 153.972656 C 219.640625 156.03125 219.648438 157.324219 220.1875 157.875 C 222.621094 160.230469 223.289062 162.019531 222.445312 164.132812 C 221.542969 166.125 221.390625 166.265625 218.015625 166.929688 C 212.15625 168 207.472656 170.554688 205.082031 173.871094 C 202.59375 177.449219 200.996094 181.5625 201.617188 182.9375 C 201.863281 183.476562 203.429688 184.710938 204.984375 185.59375 C 207.402344 186.949219 208.777344 187.121094 212.226562 186.785156 C 214.558594 186.519531 217.042969 186.117188 217.695312 185.964844 C 218.527344 185.730469 225.734375 182.195312 226.792969 182.523438 C 229.757812 181.683594 234.019531 179.113281 239.089844 177.148438 C 244.320312 173.5625 255.824219 162.855469 255.980469 164.15625 M 229.117188 153.394531 C 233.621094 156.976562 235.441406 161.632812 235.355469 169.242188 C 235.257812 174.910156 234.511719 178.203125 233.355469 177.71875 C 232.398438 177.359375 230.273438 171.546875 229.601562 167.523438 C 229.046875 164.386719 228.722656 163.667969 226.96875 161.867188 C 223.886719 158.722656 221.953125 156.207031 222.214844 155.511719 C 222.570312 154.703125 225.074219 151.476562 225.613281 151.234375 C 225.851562 151.125 227.460938 152.128906 229.117188 153.394531 Z M 235.195312 147.398438 C 236.734375 147.132812 236.789062 147.253906 238.433594 151.84375 C 241.433594 160.21875 240.363281 168.992188 239.011719 175.085938 C 238.273438 177.597656 241.019531 177.492188 239.011719 175.085938 C 238.03125 173.871094 239.386719 176.707031 239.542969 172.597656 C 239.710938 168.195312 237.847656 162.488281 236.277344 159.019531 C 235.011719 156.0625 233.703125 154.128906 231.972656 152.535156 C 230.152344 150.90625 229.652344 150.125 230.023438 149.667969 C 230.910156 148.761719 233.363281 147.652344 235.195312 147.398438 Z M 245.457031 147.292969 C 246.394531 149.679688 248.375 157.074219 249.390625 162.019531 C 249.835938 168.078125 243.660156 178.105469 244.144531 168.433594 C 244.441406 164.625 242.949219 156.71875 240.96875 150.910156 L 239.347656 146.382812 L 241.882812 145.449219 L 244.417969 144.519531 Z M 251.601562 144.148438 C 252.117188 144.492188 253.398438 147.15625 254.433594 150.074219 C 256.003906 154.339844 256.234375 155.964844 255.871094 158.507812 C 255.570312 160.230469 254.945312 162.027344 254.488281 162.453125 C 254.03125 162.875 253.34375 163.90625 252.960938 164.65625 C 252.15625 166.535156 251.292969 166.0625 251.582031 163.839844 C 251.839844 161.703125 250.605469 154.835938 248.921875 149.6875 C 248.265625 147.605469 247.753906 145.675781 247.796875 145.296875 C 247.921875 144.300781 250.71875 143.46875 251.601562 144.148438 Z M 224.054688 180.457031 C 221.726562 170.699219 223.128906 176.945312 224.082031 170.457031 C 224.804688 165.371094 225.722656 162.9375 226.375 164.371094 C 226.589844 164.851562 229.054688 172.335938 229.679688 177.53125 M 217.796875 169.625 C 219.550781 169.046875 221.09375 168.636719 221.148438 168.757812 C 221.175781 168.816406 221.046875 171.398438 220.898438 174.566406 C 220.71875 177.675781 220.78125 180.675781 221.023438 181.214844 C 221.375 181.992188 220.867188 182.292969 217.832031 183.238281 C 212.269531 184.960938 207.761719 185.203125 205.785156 183.863281 C 204.125 182.738281 204.128906 182.59375 204.828125 180.472656 C 206.351562 176.035156 210.101562 171.742188 213.128906 170.945312 C 213.84375 170.769531 215.953125 170.171875 217.796875 169.625 Z M 237.390625 175.964844 C 239.011719 175.085938 244.695312 173.757812 252.121094 168.210938 C 253.015625 167.804688 254.085938 166.816406 254.4375 166.007812 C 254.734375 165.222656 255.5 164.371094 255.980469 164.15625 C 257.234375 163.585938 258.691406 158.527344 258.511719 155.582031 "/>
<path style=" stroke:none;fill-rule:nonzero;fill:rgb(97.647059%,97.647059%,97.647059%);fill-opacity:1;" d="M 229.234375 160.625 L 233.921875 159.777344 L 236.546875 174.304688 L 231.855469 175.152344 Z M 229.234375 160.625 "/>
<path style=" stroke:none;fill-rule:nonzero;fill:rgb(97.647059%,97.647059%,97.647059%);fill-opacity:1;" d="M 236.121094 156.09375 L 240.8125 155.246094 L 243.433594 169.773438 L 238.746094 170.621094 Z M 236.121094 156.09375 "/>
<path style=" stroke:none;fill-rule:nonzero;fill:rgb(97.647059%,97.647059%,97.647059%);fill-opacity:1;" d="M 241.738281 151.507812 L 246.5 150.703125 L 249.433594 166.007812 L 244.675781 166.808594 Z M 241.738281 151.507812 "/>
<path style=" stroke:none;fill-rule:nonzero;fill:rgb(97.647059%,97.647059%,97.647059%);fill-opacity:1;" d="M 248.015625 145.726562 L 252.707031 144.882812 L 255.328125 159.410156 L 250.640625 160.257812 Z M 248.015625 145.726562 "/>
<path style=" stroke:none;fill-rule:nonzero;fill:rgb(98.823529%,99.607843%,99.607843%);fill-opacity:1;" d="M 229.019531 240.914062 L 235.214844 238.109375 L 267.480469 309.34375 L 261.285156 312.148438 Z M 229.019531 240.914062 "/>
<path style=" stroke:none;fill-rule:nonzero;fill:rgb(98.823529%,99.607843%,99.607843%);fill-opacity:1;" d="M 230.625 208.429688 L 239.039062 204.617188 L 283.742188 303.320312 L 275.328125 307.128906 Z M 230.625 208.429688 "/>
<path style=" stroke:none;fill-rule:nonzero;fill:rgb(98.823529%,99.607843%,99.607843%);fill-opacity:1;" d="M 238.246094 183.539062 L 246.660156 179.730469 L 303.695312 305.652344 L 295.28125 309.460938 Z M 238.246094 183.539062 "/>
<path style=" stroke:none;fill-rule:nonzero;fill:rgb(98.823529%,99.607843%,99.607843%);fill-opacity:1;" d="M 252.859375 174.878906 L 261.273438 171.066406 L 317.921875 296.136719 L 309.511719 299.949219 Z M 252.859375 174.878906 "/>
<path style=" stroke:none;fill-rule:nonzero;fill:rgb(98.823529%,99.607843%,99.607843%);fill-opacity:1;" d="M 269.285156 174.828125 L 274.921875 172.277344 L 331.96875 298.230469 L 326.332031 300.78125 Z M 269.285156 174.828125 "/>
<path style=" stroke:none;fill-rule:nonzero;fill:rgb(98.823529%,99.607843%,99.607843%);fill-opacity:1;" d="M 279.890625 137.101562 L 288.304688 133.289062 L 357.730469 286.5625 L 349.316406 290.375 Z M 279.890625 137.101562 "/>
<path style=" stroke:none;fill-rule:nonzero;fill:rgb(98.823529%,99.607843%,99.607843%);fill-opacity:1;" d="M 307.945312 157.320312 L 316.359375 153.507812 L 373.40625 279.460938 L 364.992188 283.273438 Z M 307.945312 157.320312 "/>
<path style=" stroke:none;fill-rule:nonzero;fill:rgb(98.823529%,99.607843%,99.607843%);fill-opacity:1;" d="M 323.328125 150.351562 L 331.742188 146.539062 L 388.789062 272.492188 L 380.375 276.304688 Z M 323.328125 150.351562 "/>
<path style=" stroke:none;fill-rule:nonzero;fill:rgb(98.823529%,99.607843%,99.607843%);fill-opacity:1;" d="M 340.734375 139.800781 L 349.144531 135.988281 L 406.195312 261.941406 L 397.78125 265.753906 Z M 340.734375 139.800781 "/>
<path style=" stroke:none;fill-rule:nonzero;fill:rgb(98.823529%,99.607843%,99.607843%);fill-opacity:1;" d="M 353.0625 126.09375 L 361.476562 122.285156 L 421.578125 254.976562 L 413.164062 258.785156 Z M 353.0625 126.09375 "/>
<path style=" stroke:none;fill-rule:nonzero;fill:rgb(98.823529%,99.607843%,99.607843%);fill-opacity:1;" d="M 371.792969 125.730469 L 380.207031 121.921875 L 428.914062 229.457031 L 420.5 233.265625 Z M 371.792969 125.730469 "/>
<path style=" stroke:none;fill-rule:nonzero;fill:rgb(98.823529%,99.607843%,99.607843%);fill-opacity:1;" d="M 261.902344 132.046875 L 270.714844 128.054688 L 341.3125 283.917969 L 332.5 287.910156 Z M 261.902344 132.046875 "/>
<path style=" stroke:none;fill-rule:nonzero;fill:rgb(98.823529%,99.607843%,99.607843%);fill-opacity:1;" d="M 398.867188 136.40625 L 402.738281 144.789062 L 368.167969 164.355469 L 364.296875 155.972656 Z M 398.867188 136.40625 "/>
<path style=" stroke:none;fill-rule:nonzero;fill:rgb(98.823529%,99.607843%,99.607843%);fill-opacity:1;" d="M 407.945312 154.402344 L 411.816406 162.785156 L 377.246094 182.351562 L 373.375 173.96875 Z M 407.945312 154.402344 "/>
<path style=" stroke:none;fill-rule:nonzero;fill:rgb(98.823529%,99.607843%,99.607843%);fill-opacity:1;" d="M 416.871094 168.679688 L 420.742188 177.0625 L 384.324219 197.675781 L 380.453125 189.292969 Z M 416.871094 168.679688 "/>
<path style=" stroke:none;fill-rule:nonzero;fill:rgb(98.823529%,99.607843%,99.607843%);fill-opacity:1;" d="M 418.410156 187.082031 L 422.28125 195.464844 L 392.765625 212.171875 L 388.894531 203.789062 Z M 418.410156 187.082031 "/>
<path style=" stroke:none;fill-rule:nonzero;fill:rgb(98.823529%,99.607843%,99.607843%);fill-opacity:1;" d="M 252.488281 235.488281 L 255.964844 243.871094 L 224.933594 263.4375 L 221.457031 255.054688 Z M 252.488281 235.488281 "/>
<path style=" stroke:none;fill-rule:nonzero;fill:rgb(98.823529%,99.607843%,99.607843%);fill-opacity:1;" d="M 261.167969 253.484375 L 265.042969 261.867188 L 230.472656 281.433594 L 226.597656 273.050781 Z M 261.167969 253.484375 "/>
<path style=" stroke:none;fill-rule:nonzero;fill:rgb(98.823529%,99.607843%,99.607843%);fill-opacity:1;" d="M 270.097656 267.765625 L 273.96875 276.148438 L 237.550781 296.757812 L 233.679688 288.375 Z M 270.097656 267.765625 "/>
<path style=" stroke:none;fill-rule:nonzero;fill:rgb(98.823529%,99.607843%,99.607843%);fill-opacity:1;" d="M 271.632812 286.164062 L 275.503906 294.546875 L 245.992188 311.253906 L 242.117188 302.871094 Z M 271.632812 286.164062 "/>
<path style=" stroke:none;fill-rule:nonzero;fill:rgb(98.823529%,99.607843%,99.607843%);fill-opacity:1;" d="M 283.894531 160.804688 L 286.175781 165.589844 L 232.023438 192.359375 L 229.742188 187.574219 Z M 283.894531 160.804688 "/>
<path style=" stroke:none;fill-rule:nonzero;fill:rgb(98.823529%,99.607843%,99.607843%);fill-opacity:1;" d="M 290.347656 172.195312 L 292.945312 177.648438 L 231.238281 208.152344 L 228.640625 202.699219 Z M 290.347656 172.195312 "/>
<path style=" stroke:none;fill-rule:nonzero;fill:rgb(98.823529%,99.607843%,99.607843%);fill-opacity:1;" d="M 298.398438 180.53125 L 301 185.980469 L 235.988281 218.117188 L 233.390625 212.667969 Z M 298.398438 180.53125 "/>
<path style=" stroke:none;fill-rule:nonzero;fill:rgb(98.823529%,99.607843%,99.607843%);fill-opacity:1;" d="M 293.285156 195.335938 L 295.882812 200.785156 L 243.199219 226.832031 L 240.601562 221.378906 Z M 293.285156 195.335938 "/>
<path style=" stroke:none;fill-rule:nonzero;fill:rgb(98.823529%,99.607843%,99.607843%);fill-opacity:1;" d="M 373.765625 110.089844 L 376.402344 115.523438 L 291.394531 156.582031 L 288.757812 151.148438 Z M 373.765625 110.089844 "/>
<path style=" stroke:none;fill-rule:nonzero;fill:rgb(98.823529%,99.607843%,99.607843%);fill-opacity:1;" d="M 381.03125 121.253906 L 383.671875 126.6875 L 298.664062 167.746094 L 296.023438 162.3125 Z M 381.03125 121.253906 "/>
<path style=" stroke:none;fill-rule:nonzero;fill:rgb(98.823529%,99.607843%,99.607843%);fill-opacity:1;" d="M 390.40625 128.992188 L 393.042969 134.425781 L 303.488281 177.679688 L 300.847656 172.246094 Z M 390.40625 128.992188 "/>
<path style=" stroke:none;fill-rule:nonzero;fill:rgb(98.823529%,99.607843%,99.607843%);fill-opacity:1;" d="M 381.640625 145.449219 L 384.28125 150.882812 L 311.703125 185.9375 L 309.066406 180.503906 Z M 381.640625 145.449219 "/>
<path style=" stroke:none;fill-rule:nonzero;fill:rgb(98.823529%,99.607843%,99.607843%);fill-opacity:1;" d="M 357.113281 191.261719 L 359.75 196.695312 L 274.742188 237.753906 L 272.105469 232.320312 Z M 357.113281 191.261719 "/>
<path style=" stroke:none;fill-rule:nonzero;fill:rgb(98.823529%,99.607843%,99.607843%);fill-opacity:1;" d="M 364.378906 202.429688 L 367.019531 207.859375 L 282.011719 248.917969 L 279.371094 243.488281 Z M 364.378906 202.429688 "/>
<path style=" stroke:none;fill-rule:nonzero;fill:rgb(98.823529%,99.607843%,99.607843%);fill-opacity:1;" d="M 373.753906 210.164062 L 376.390625 215.597656 L 286.835938 258.851562 L 284.195312 253.417969 Z M 373.753906 210.164062 "/>
<path style=" stroke:none;fill-rule:nonzero;fill:rgb(98.823529%,99.607843%,99.607843%);fill-opacity:1;" d="M 364.988281 226.621094 L 367.628906 232.054688 L 295.050781 267.109375 L 292.414062 261.675781 Z M 364.988281 226.621094 "/>
<g style="fill:rgb(74.509804%,74.509804%,74.509804%);fill-opacity:1;">
  <use xlink:href="#glyph0-1" x="0" y="523.171875"/>
  <use xlink:href="#glyph0-2" x="10" y="523.171875"/>
  <use xlink:href="#glyph0-3" x="13" y="523.171875"/>
  <use xlink:href="#glyph0-4" x="20" y="523.171875"/>
  <use xlink:href="#glyph0-5" x="24" y="523.171875"/>
  <use xlink:href="#glyph0-6" x="32" y="523.171875"/>
  <use xlink:href="#glyph0-7" x="39" y="523.171875"/>
  <use xlink:href="#glyph0-3" x="44" y="523.171875"/>
</g>
</g>
</svg>
